{
    "name": "PlayerInputActions",
    "maps": [
        {
            "name": "Player",
            "id": "f7b18825-9894-4ffe-ac06-ffd1c5d6e869",
            "actions": [
                {
                    "name": "Look",
                    "type": "Value",
                    "id": "b842817c-fd3d-4b1f-a77e-f1836e30d2b4",
                    "expectedControlType": "Vector2",
                    "processors": "",
                    "interactions": ""
                },
                {
                    "name": "MoveInput",
                    "type": "Value",
                    "id": "803d21d4-e7ce-439a-8dd1-afb86343cd9b",
                    "expectedControlType": "Vector2",
                    "processors": "",
                    "interactions": ""
                },
                {
                    "name": "JumpInput",
                    "type": "Value",
                    "id": "ecef1674-c3b8-4a2f-b2f4-38096f9039d1",
                    "expectedControlType": "",
                    "processors": "",
                    "interactions": "Press(behavior=2)"
                },
                {
                    "name": "SprintInput",
                    "type": "Button",
                    "id": "d3b4b11f-1fca-4017-929f-a86aed0a0f51",
                    "expectedControlType": "Button",
                    "processors": "",
                    "interactions": ""
                },
                {
                    "name": "Fire1",
                    "type": "Value",
                    "id": "247ffa92-4e9f-49c9-946f-d85325e2b662",
                    "expectedControlType": "",
                    "processors": "",
                    "interactions": "Press(behavior=2)"
                },
                {
                    "name": "Settings",
                    "type": "Button",
                    "id": "eddf44a3-c257-4a3e-9149-5612ebe12692",
                    "expectedControlType": "Button",
                    "processors": "",
                    "interactions": ""
                },
                {
                    "name": "Scoreboard",
                    "type": "Value",
                    "id": "e210af2b-dd72-4a5a-a7b4-76421ed5fc91",
                    "expectedControlType": "",
                    "processors": "",
                    "interactions": ""
                },
                {
                    "name": "Reload",
                    "type": "Button",
                    "id": "7e5bf3b6-b76a-4eb0-968e-ab492ceb4fcc",
                    "expectedControlType": "Button",
                    "processors": "",
                    "interactions": ""
                },
                {
                    "name": "CrouchInput",
                    "type": "Value",
                    "id": "f820c198-50c1-4dfa-b7f7-b80c45d4c37a",
                    "expectedControlType": "",
                    "processors": "",
                    "interactions": ""
                },
                {
                    "name": "Aim",
                    "type": "Value",
                    "id": "2c72443d-938a-4f33-a0f6-8c6783dba6fc",
                    "expectedControlType": "",
                    "processors": "",
                    "interactions": ""
                },
                {
                    "name": "Setiings",
                    "type": "Button",
                    "id": "040527d5-c82e-401c-bbc3-a7c024032afa",
                    "expectedControlType": "Button",
                    "processors": "",
                    "interactions": ""
                }
            ],
            "bindings": [
                {
                    "name": "2D Vector",
                    "id": "ab2c9e5e-ec00-4a09-85ff-1a5c72e1cf53",
                    "path": "2DVector",
                    "interactions": "",
                    "processors": "",
                    "groups": "",
                    "action": "MoveInput",
                    "isComposite": true,
                    "isPartOfComposite": false
                },
                {
                    "name": "up",
                    "id": "681d44c6-d64d-451d-9cb8-374c7046a012",
                    "path": "<Keyboard>/w",
                    "interactions": "",
                    "processors": "",
                    "groups": "Keyboard & mouse",
                    "action": "MoveInput",
                    "isComposite": false,
                    "isPartOfComposite": true
                },
                {
                    "name": "down",
                    "id": "3db97bfc-12f2-460e-a663-31c52baa20dd",
                    "path": "<Keyboard>/s",
                    "interactions": "",
                    "processors": "",
                    "groups": "Keyboard & mouse",
                    "action": "MoveInput",
                    "isComposite": false,
                    "isPartOfComposite": true
                },
                {
                    "name": "left",
                    "id": "72c9953d-0b51-42eb-a079-0fd837be6dd7",
                    "path": "<Keyboard>/a",
                    "interactions": "",
                    "processors": "",
                    "groups": "Keyboard & mouse",
                    "action": "MoveInput",
                    "isComposite": false,
                    "isPartOfComposite": true
                },
                {
                    "name": "right",
                    "id": "4c14a335-dfb8-4583-b2ec-e25343a61d24",
                    "path": "<Keyboard>/d",
                    "interactions": "",
                    "processors": "",
                    "groups": "Keyboard & mouse",
                    "action": "MoveInput",
                    "isComposite": false,
                    "isPartOfComposite": true
                },
                {
                    "name": "",
                    "id": "20620af2-639a-49b0-ba8f-c6fab1ddd848",
                    "path": "<Keyboard>/space",
                    "interactions": "",
                    "processors": "",
                    "groups": "Keyboard & mouse",
                    "action": "JumpInput",
                    "isComposite": false,
                    "isPartOfComposite": false
                },
                {
                    "name": "",
                    "id": "1344e803-f521-4305-be4d-804bcb187620",
                    "path": "<Mouse>/leftButton",
                    "interactions": "",
                    "processors": "",
                    "groups": "Keyboard & mouse",
                    "action": "Fire1",
                    "isComposite": false,
                    "isPartOfComposite": false
                },
                {
                    "name": "",
                    "id": "f0b72871-df3f-477a-a080-b85eac16a0d6",
                    "path": "<Keyboard>/w",
                    "interactions": "Tap",
                    "processors": "",
                    "groups": "Keyboard & mouse",
                    "action": "SprintInput",
                    "isComposite": false,
                    "isPartOfComposite": false
                },
                {
                    "name": "",
                    "id": "a285941b-de01-400c-8401-51d86565ff47",
                    "path": "<Mouse>/delta",
                    "interactions": "",
                    "processors": "",
                    "groups": "Keyboard & mouse",
                    "action": "Look",
                    "isComposite": false,
                    "isPartOfComposite": false
                },
                {
                    "name": "",
                    "id": "5021b1b3-f407-4341-a944-1b402d43789e",
                    "path": "<Keyboard>/escape",
                    "interactions": "",
                    "processors": "",
                    "groups": "Keyboard & mouse",
                    "action": "Settings",
                    "isComposite": false,
                    "isPartOfComposite": false
                },
                {
                    "name": "",
                    "id": "cc72a9cf-4896-486a-8995-f52aeb477b81",
                    "path": "<Keyboard>/tab",
                    "interactions": "",
                    "processors": "",
                    "groups": "",
                    "action": "Scoreboard",
                    "isComposite": false,
                    "isPartOfComposite": false
                },
                {
                    "name": "",
                    "id": "ed1383b7-4462-4b05-a98e-540bb1ce9bde",
                    "path": "<Keyboard>/r",
                    "interactions": "",
                    "processors": "",
                    "groups": "Keyboard & mouse",
                    "action": "Reload",
                    "isComposite": false,
                    "isPartOfComposite": false
                },
                {
                    "name": "",
                    "id": "fb2b16d3-26b2-4de4-baa9-82e407605bab",
                    "path": "<Keyboard>/leftShift",
                    "interactions": "",
                    "processors": "",
                    "groups": "Keyboard & mouse",
                    "action": "CrouchInput",
                    "isComposite": false,
                    "isPartOfComposite": false
                },
                {
                    "name": "",
                    "id": "9ab5aad1-54db-4805-b296-b4a360df0bd7",
                    "path": "<Mouse>/rightButton",
                    "interactions": "",
                    "processors": "",
                    "groups": "Keyboard & mouse",
                    "action": "Aim",
                    "isComposite": false,
                    "isPartOfComposite": false
                },
                {
                    "name": "",
                    "id": "0ac907b2-cd70-4574-8f86-596226a121f3",
                    "path": "<Keyboard>/escape",
                    "interactions": "",
                    "processors": "",
                    "groups": "",
                    "action": "Setiings",
                    "isComposite": false,
                    "isPartOfComposite": false
                }
            ]
        }
    ],
    "controlSchemes": [
        {
            "name": "Keyboard & mouse",
            "bindingGroup": "Keyboard & mouse",
            "devices": [
                {
                    "devicePath": "<Keyboard>",
                    "isOptional": false,
                    "isOR": false
                },
                {
                    "devicePath": "<Mouse>",
                    "isOptional": false,
                    "isOR": false
                }
            ]
        }
    ]
}