%YAML 1.1
%TAG !u! tag:unity3d.com,2011:
--- !u!29 &1
OcclusionCullingSettings:
  m_ObjectHideFlags: 0
  serializedVersion: 2
  m_OcclusionBakeSettings:
    smallestOccluder: 5
    smallestHole: 0.25
    backfaceThreshold: 100
  m_SceneGUID: 00000000000000000000000000000000
  m_OcclusionCullingData: {fileID: 0}
--- !u!104 &2
RenderSettings:
  m_ObjectHideFlags: 0
  serializedVersion: 9
  m_Fog: 0
  m_FogColor: {r: 0.5, g: 0.5, b: 0.5, a: 1}
  m_FogMode: 3
  m_FogDensity: 0.01
  m_LinearFogStart: 0
  m_LinearFogEnd: 300
  m_AmbientSkyColor: {r: 0.212, g: 0.227, b: 0.259, a: 1}
  m_AmbientEquatorColor: {r: 0.114, g: 0.125, b: 0.133, a: 1}
  m_AmbientGroundColor: {r: 0.047, g: 0.043, b: 0.035, a: 1}
  m_AmbientIntensity: 1
  m_AmbientMode: 0
  m_SubtractiveShadowColor: {r: 0.42, g: 0.478, b: 0.627, a: 1}
  m_SkyboxMaterial: {fileID: 10304, guid: 0000000000000000f000000000000000, type: 0}
  m_HaloStrength: 0.5
  m_FlareStrength: 1
  m_FlareFadeSpeed: 3
  m_HaloTexture: {fileID: 0}
  m_SpotCookie: {fileID: 10001, guid: 0000000000000000e000000000000000, type: 0}
  m_DefaultReflectionMode: 0
  m_DefaultReflectionResolution: 128
  m_ReflectionBounces: 1
  m_ReflectionIntensity: 1
  m_CustomReflection: {fileID: 0}
  m_Sun: {fileID: 0}
  m_IndirectSpecularColor: {r: 0, g: 0, b: 0, a: 1}
  m_UseRadianceAmbientProbe: 0
--- !u!157 &3
LightmapSettings:
  m_ObjectHideFlags: 0
  serializedVersion: 12
  m_GIWorkflowMode: 1
  m_GISettings:
    serializedVersion: 2
    m_BounceScale: 1
    m_IndirectOutputScale: 1
    m_AlbedoBoost: 1
    m_EnvironmentLightingMode: 0
    m_EnableBakedLightmaps: 1
    m_EnableRealtimeLightmaps: 0
  m_LightmapEditorSettings:
    serializedVersion: 12
    m_Resolution: 2
    m_BakeResolution: 40
    m_AtlasSize: 1024
    m_AO: 0
    m_AOMaxDistance: 1
    m_CompAOExponent: 1
    m_CompAOExponentDirect: 0
    m_ExtractAmbientOcclusion: 0
    m_Padding: 2
    m_LightmapParameters: {fileID: 0}
    m_LightmapsBakeMode: 1
    m_TextureCompression: 1
    m_FinalGather: 0
    m_FinalGatherFiltering: 1
    m_FinalGatherRayCount: 256
    m_ReflectionCompression: 2
    m_MixedBakeMode: 2
    m_BakeBackend: 1
    m_PVRSampling: 1
    m_PVRDirectSampleCount: 32
    m_PVRSampleCount: 500
    m_PVRBounces: 2
    m_PVREnvironmentSampleCount: 500
    m_PVREnvironmentReferencePointCount: 2048
    m_PVRFilteringMode: 2
    m_PVRDenoiserTypeDirect: 0
    m_PVRDenoiserTypeIndirect: 0
    m_PVRDenoiserTypeAO: 0
    m_PVRFilterTypeDirect: 0
    m_PVRFilterTypeIndirect: 0
    m_PVRFilterTypeAO: 0
    m_PVREnvironmentMIS: 0
    m_PVRCulling: 1
    m_PVRFilteringGaussRadiusDirect: 1
    m_PVRFilteringGaussRadiusIndirect: 5
    m_PVRFilteringGaussRadiusAO: 2
    m_PVRFilteringAtrousPositionSigmaDirect: 0.5
    m_PVRFilteringAtrousPositionSigmaIndirect: 2
    m_PVRFilteringAtrousPositionSigmaAO: 1
    m_ExportTrainingData: 0
    m_TrainingDataDestination: TrainingData
    m_LightProbeSampleCountMultiplier: 4
  m_LightingDataAsset: {fileID: 0}
  m_LightingSettings: {fileID: 4890085278179872738, guid: c40bbeeeba7392d4a849adb2f9896c8d, type: 2}
--- !u!196 &4
NavMeshSettings:
  serializedVersion: 2
  m_ObjectHideFlags: 0
  m_BuildSettings:
    serializedVersion: 2
    agentTypeID: 0
    agentRadius: 0.5
    agentHeight: 2
    agentSlope: 45
    agentClimb: 0.4
    ledgeDropHeight: 0
    maxJumpAcrossDistance: 0
    minRegionArea: 2
    manualCellSize: 0
    cellSize: 0.16666667
    manualTileSize: 0
    tileSize: 256
    accuratePlacement: 0
    maxJobWorkers: 0
    preserveTilesOutsideBounds: 0
    debug:
      m_Flags: 0
  m_NavMeshData: {fileID: 0}
--- !u!1 &16196409
GameObject:
  m_ObjectHideFlags: 0
  m_CorrespondingSourceObject: {fileID: 0}
  m_PrefabInstance: {fileID: 0}
  m_PrefabAsset: {fileID: 0}
  serializedVersion: 6
  m_Component:
  - component: {fileID: 16196412}
  - component: {fileID: 16196410}
  - component: {fileID: 16196411}
  - component: {fileID: 16196413}
  m_Layer: 0
  m_Name: NetworkManager
  m_TagString: Untagged
  m_Icon: {fileID: 0}
  m_NavMeshLayer: 0
  m_StaticEditorFlags: 0
  m_IsActive: 1
--- !u!114 &16196410
MonoBehaviour:
  m_ObjectHideFlags: 0
  m_CorrespondingSourceObject: {fileID: 0}
  m_PrefabInstance: {fileID: 0}
  m_PrefabAsset: {fileID: 0}
  m_GameObject: {fileID: 16196409}
  m_Enabled: 0
  m_EditorHideFlags: 0
  m_Script: {fileID: 11500000, guid: 6b0fecffa3f624585964b0d0eb21b18e, type: 3}
  m_Name: 
  m_EditorClassIdentifier: 
  OnClientConnected:
    m_PersistentCalls:
      m_Calls: []
  OnClientDataReceived:
    m_PersistentCalls:
      m_Calls: []
  OnClientError:
    m_PersistentCalls:
      m_Calls: []
  OnClientDisconnected:
    m_PersistentCalls:
      m_Calls: []
  OnServerConnected:
    m_PersistentCalls:
      m_Calls: []
  OnServerDataReceived:
    m_PersistentCalls:
      m_Calls: []
  OnServerError:
    m_PersistentCalls:
      m_Calls: []
  OnServerDisconnected:
    m_PersistentCalls:
      m_Calls: []
  Port: 7777
  NoDelay: 1
  Interval: 10
  FastResend: 0
  CongestionWindow: 1
  SendWindowSize: 128
  ReceiveWindowSize: 128
  debugGUI: 0
--- !u!114 &16196411
MonoBehaviour:
  m_ObjectHideFlags: 0
  m_CorrespondingSourceObject: {fileID: 0}
  m_PrefabInstance: {fileID: 0}
  m_PrefabAsset: {fileID: 0}
  m_GameObject: {fileID: 16196409}
  m_Enabled: 1
  m_EditorHideFlags: 0
  m_Script: {fileID: 11500000, guid: 8e717b32f74ecb54aab1f01a598f08e3, type: 3}
  m_Name: 
  m_EditorClassIdentifier: 
  dontDestroyOnLoad: 1
  runInBackground: 1
  autoStartServerBuild: 1
  showDebugMessages: 0
  serverTickRate: 60
  offlineScene: 
  onlineScene: 
  transport: {fileID: 16196413}
  networkAddress: localhost
  maxConnections: 10
  disconnectInactiveConnections: 0
  disconnectInactiveTimeout: 60
  authenticator: {fileID: 0}
  playerPrefab: {fileID: 1641715429164821929, guid: f855d49bfc48a5843b8f240126a57281, type: 3}
  autoCreatePlayer: 1
  playerSpawnMethod: 0
  spawnPrefabs: []
  showRoomGUI: 0
  minPlayers: 1
  roomPlayerPrefab: {fileID: 9031751470160363860, guid: e98f18dd64589464fb0d316d7a554c02, type: 3}
  RoomScene: Assets/Scenes/MenuScene.unity
  GameplayScene: Assets/Scenes/Scene_Map_02.unity
  _allPlayersReady: 0
  roomSlots: []
  clientIndex: 0
  team1: []
  team2: []
  spawnSystem: {fileID: 8681770514229190727, guid: d6b561951ca72e541a18b613e025b827, type: 3}
  gameManager: {fileID: 1921971947086495477, guid: 2126d05c748551c428f22ffa424a324b, type: 3}
  ball: {fileID: 7549876552937938177, guid: 765c4c900ec78564cad786e6fe5cc91a, type: 3}
  gameHud: {fileID: 5833344863403983706, guid: ad6bd1e5b1b9f124c9a706fac099e5a5, type: 3}
--- !u!4 &16196412
Transform:
  m_ObjectHideFlags: 0
  m_CorrespondingSourceObject: {fileID: 0}
  m_PrefabInstance: {fileID: 0}
  m_PrefabAsset: {fileID: 0}
  m_GameObject: {fileID: 16196409}
  m_LocalRotation: {x: 0, y: 0, z: 0, w: 1}
  m_LocalPosition: {x: 1070.7694, y: 471.13644, z: -73.37618}
  m_LocalScale: {x: 1, y: 1, z: 1}
  m_Children: []
  m_Father: {fileID: 0}
  m_RootOrder: 3
  m_LocalEulerAnglesHint: {x: 0, y: 0, z: 0}
--- !u!114 &16196413
MonoBehaviour:
  m_ObjectHideFlags: 0
  m_CorrespondingSourceObject: {fileID: 0}
  m_PrefabInstance: {fileID: 0}
  m_PrefabAsset: {fileID: 0}
  m_GameObject: {fileID: 16196409}
  m_Enabled: 1
  m_EditorHideFlags: 0
  m_Script: {fileID: 11500000, guid: c7424c1070fad4ba2a7a96b02fbeb4bb, type: 3}
  m_Name: 
  m_EditorClassIdentifier: 
  OnClientConnected:
    m_PersistentCalls:
      m_Calls: []
  OnClientDataReceived:
    m_PersistentCalls:
      m_Calls: []
  OnClientError:
    m_PersistentCalls:
      m_Calls: []
  OnClientDisconnected:
    m_PersistentCalls:
      m_Calls: []
  OnServerConnected:
    m_PersistentCalls:
      m_Calls: []
  OnServerDataReceived:
    m_PersistentCalls:
      m_Calls: []
  OnServerError:
    m_PersistentCalls:
      m_Calls: []
  OnServerDisconnected:
    m_PersistentCalls:
      m_Calls: []
  port: 7777
  NoDelay: 1
  serverMaxMessageSize: 16384
  serverMaxReceivesPerTick: 10000
  clientMaxMessageSize: 16384
  clientMaxReceivesPerTick: 1000
--- !u!114 &174785825 stripped
MonoBehaviour:
  m_CorrespondingSourceObject: {fileID: 3621774349272653320, guid: 6b7a1c182ec5c0e4d9b3a6a0667793f7, type: 3}
  m_PrefabInstance: {fileID: 1594032602}
  m_PrefabAsset: {fileID: 0}
  m_GameObject: {fileID: 0}
  m_Enabled: 1
  m_EditorHideFlags: 0
  m_Script: {fileID: 11500000, guid: 2da0c512f12947e489f739169773d7ca, type: 3}
  m_Name: 
  m_EditorClassIdentifier: 
--- !u!1 &299341326
GameObject:
  m_ObjectHideFlags: 0
  m_CorrespondingSourceObject: {fileID: 0}
  m_PrefabInstance: {fileID: 0}
  m_PrefabAsset: {fileID: 0}
  serializedVersion: 6
  m_Component:
  - component: {fileID: 299341329}
  - component: {fileID: 299341328}
  - component: {fileID: 299341327}
  - component: {fileID: 299341330}
  m_Layer: 0
  m_Name: EventSystem
  m_TagString: Untagged
  m_Icon: {fileID: 0}
  m_NavMeshLayer: 0
  m_StaticEditorFlags: 0
  m_IsActive: 1
--- !u!114 &299341327
MonoBehaviour:
  m_ObjectHideFlags: 0
  m_CorrespondingSourceObject: {fileID: 0}
  m_PrefabInstance: {fileID: 0}
  m_PrefabAsset: {fileID: 0}
  m_GameObject: {fileID: 299341326}
  m_Enabled: 1
  m_EditorHideFlags: 0
  m_Script: {fileID: 11500000, guid: 4f231c4fb786f3946a6b90b886c48677, type: 3}
  m_Name: 
  m_EditorClassIdentifier: 
  m_HorizontalAxis: Horizontal
  m_VerticalAxis: Vertical
  m_SubmitButton: Submit
  m_CancelButton: Cancel
  m_InputActionsPerSecond: 10
  m_RepeatDelay: 0.5
  m_ForceModuleActive: 0
--- !u!114 &299341328
MonoBehaviour:
  m_ObjectHideFlags: 0
  m_CorrespondingSourceObject: {fileID: 0}
  m_PrefabInstance: {fileID: 0}
  m_PrefabAsset: {fileID: 0}
  m_GameObject: {fileID: 299341326}
  m_Enabled: 1
  m_EditorHideFlags: 0
  m_Script: {fileID: 11500000, guid: 76c392e42b5098c458856cdf6ecaaaa1, type: 3}
  m_Name: 
  m_EditorClassIdentifier: 
  m_FirstSelected: {fileID: 0}
  m_sendNavigationEvents: 1
  m_DragThreshold: 10
--- !u!4 &299341329
Transform:
  m_ObjectHideFlags: 0
  m_CorrespondingSourceObject: {fileID: 0}
  m_PrefabInstance: {fileID: 0}
  m_PrefabAsset: {fileID: 0}
  m_GameObject: {fileID: 299341326}
  m_LocalRotation: {x: 0, y: 0, z: 0, w: 1}
  m_LocalPosition: {x: 0, y: 0, z: 0}
  m_LocalScale: {x: 1, y: 1, z: 1}
  m_Children: []
  m_Father: {fileID: 0}
  m_RootOrder: 2
  m_LocalEulerAnglesHint: {x: 0, y: 0, z: 0}
--- !u!114 &299341330
MonoBehaviour:
  m_ObjectHideFlags: 0
  m_CorrespondingSourceObject: {fileID: 0}
  m_PrefabInstance: {fileID: 0}
  m_PrefabAsset: {fileID: 0}
  m_GameObject: {fileID: 299341326}
  m_Enabled: 1
  m_EditorHideFlags: 0
  m_Script: {fileID: 11500000, guid: d686d3e5b94549e2a1e87b79c3697998, type: 3}
  m_Name: 
  m_EditorClassIdentifier: 
--- !u!1 &339865428
GameObject:
  m_ObjectHideFlags: 0
  m_CorrespondingSourceObject: {fileID: 0}
  m_PrefabInstance: {fileID: 0}
  m_PrefabAsset: {fileID: 0}
  serializedVersion: 6
  m_Component:
  - component: {fileID: 339865429}
  m_Layer: 0
  m_Name: === Managers ===
  m_TagString: Untagged
  m_Icon: {fileID: 0}
  m_NavMeshLayer: 0
  m_StaticEditorFlags: 0
  m_IsActive: 1
--- !u!4 &339865429
Transform:
  m_ObjectHideFlags: 0
  m_CorrespondingSourceObject: {fileID: 0}
  m_PrefabInstance: {fileID: 0}
  m_PrefabAsset: {fileID: 0}
  m_GameObject: {fileID: 339865428}
  m_LocalRotation: {x: 0, y: 0, z: 0, w: 1}
  m_LocalPosition: {x: 1070.7694, y: 471.13644, z: -73.37618}
  m_LocalScale: {x: 1, y: 1, z: 1}
  m_Children: []
  m_Father: {fileID: 0}
  m_RootOrder: 0
  m_LocalEulerAnglesHint: {x: 0, y: 0, z: 0}
--- !u!114 &430885099 stripped
MonoBehaviour:
  m_CorrespondingSourceObject: {fileID: 7426169707439073218, guid: a0f9a381670583a44909b7242d9efec4, type: 3}
  m_PrefabInstance: {fileID: 961256789}
  m_PrefabAsset: {fileID: 0}
  m_GameObject: {fileID: 0}
  m_Enabled: 1
  m_EditorHideFlags: 0
  m_Script: {fileID: 11500000, guid: f4688fdb7df04437aeb418b961361dc5, type: 3}
  m_Name: 
  m_EditorClassIdentifier: 
--- !u!114 &432859005 stripped
MonoBehaviour:
  m_CorrespondingSourceObject: {fileID: 7426169707776509314, guid: a0f9a381670583a44909b7242d9efec4, type: 3}
  m_PrefabInstance: {fileID: 961256789}
  m_PrefabAsset: {fileID: 0}
  m_GameObject: {fileID: 0}
  m_Enabled: 1
  m_EditorHideFlags: 0
  m_Script: {fileID: 11500000, guid: f4688fdb7df04437aeb418b961361dc5, type: 3}
  m_Name: 
  m_EditorClassIdentifier: 
--- !u!114 &537049191 stripped
MonoBehaviour:
  m_CorrespondingSourceObject: {fileID: 7426169706320157064, guid: a0f9a381670583a44909b7242d9efec4, type: 3}
  m_PrefabInstance: {fileID: 961256789}
  m_PrefabAsset: {fileID: 0}
  m_GameObject: {fileID: 0}
  m_Enabled: 1
  m_EditorHideFlags: 0
  m_Script: {fileID: 11500000, guid: f4688fdb7df04437aeb418b961361dc5, type: 3}
  m_Name: 
  m_EditorClassIdentifier: 
--- !u!114 &609403996 stripped
MonoBehaviour:
  m_CorrespondingSourceObject: {fileID: 7426169706109843283, guid: a0f9a381670583a44909b7242d9efec4, type: 3}
  m_PrefabInstance: {fileID: 961256789}
  m_PrefabAsset: {fileID: 0}
  m_GameObject: {fileID: 0}
  m_Enabled: 1
  m_EditorHideFlags: 0
  m_Script: {fileID: 11500000, guid: 4e29b1a8efbd4b44bb3f3716e73f07ff, type: 3}
  m_Name: 
  m_EditorClassIdentifier: 
--- !u!114 &626289041 stripped
MonoBehaviour:
  m_CorrespondingSourceObject: {fileID: 7426169707153059272, guid: a0f9a381670583a44909b7242d9efec4, type: 3}
  m_PrefabInstance: {fileID: 961256789}
  m_PrefabAsset: {fileID: 0}
  m_GameObject: {fileID: 0}
  m_Enabled: 1
  m_EditorHideFlags: 0
  m_Script: {fileID: 11500000, guid: f4688fdb7df04437aeb418b961361dc5, type: 3}
  m_Name: 
  m_EditorClassIdentifier: 
--- !u!114 &654296350 stripped
MonoBehaviour:
  m_CorrespondingSourceObject: {fileID: 7426169706661407334, guid: a0f9a381670583a44909b7242d9efec4, type: 3}
  m_PrefabInstance: {fileID: 961256789}
  m_PrefabAsset: {fileID: 0}
  m_GameObject: {fileID: 0}
  m_Enabled: 1
  m_EditorHideFlags: 0
  m_Script: {fileID: 11500000, guid: 4e29b1a8efbd4b44bb3f3716e73f07ff, type: 3}
  m_Name: 
  m_EditorClassIdentifier: 
--- !u!114 &659747817 stripped
MonoBehaviour:
  m_CorrespondingSourceObject: {fileID: 2494236341128574348, guid: 07d9436d46a62454bb84b30302412fbd, type: 3}
  m_PrefabInstance: {fileID: 1492293377}
  m_PrefabAsset: {fileID: 0}
  m_GameObject: {fileID: 0}
  m_Enabled: 1
  m_EditorHideFlags: 0
  m_Script: {fileID: 11500000, guid: f83d5f7eb6b01ce4e956b9d9e382003e, type: 3}
  m_Name: 
  m_EditorClassIdentifier: 
--- !u!1 &808298696 stripped
GameObject:
  m_CorrespondingSourceObject: {fileID: 7426169707324717205, guid: a0f9a381670583a44909b7242d9efec4, type: 3}
  m_PrefabInstance: {fileID: 961256789}
  m_PrefabAsset: {fileID: 0}
--- !u!224 &808298697 stripped
RectTransform:
  m_CorrespondingSourceObject: {fileID: 7426169707324717206, guid: a0f9a381670583a44909b7242d9efec4, type: 3}
  m_PrefabInstance: {fileID: 961256789}
  m_PrefabAsset: {fileID: 0}
--- !u!114 &889834982 stripped
MonoBehaviour:
  m_CorrespondingSourceObject: {fileID: 7426169707104719135, guid: a0f9a381670583a44909b7242d9efec4, type: 3}
  m_PrefabInstance: {fileID: 961256789}
  m_PrefabAsset: {fileID: 0}
  m_GameObject: {fileID: 0}
  m_Enabled: 1
  m_EditorHideFlags: 0
  m_Script: {fileID: 11500000, guid: 4e29b1a8efbd4b44bb3f3716e73f07ff, type: 3}
  m_Name: 
  m_EditorClassIdentifier: 
--- !u!1 &891067153 stripped
GameObject:
  m_CorrespondingSourceObject: {fileID: 3621774349155750916, guid: 6b7a1c182ec5c0e4d9b3a6a0667793f7, type: 3}
  m_PrefabInstance: {fileID: 1594032602}
  m_PrefabAsset: {fileID: 0}
--- !u!114 &891067154
MonoBehaviour:
  m_ObjectHideFlags: 0
  m_CorrespondingSourceObject: {fileID: 0}
  m_PrefabInstance: {fileID: 0}
  m_PrefabAsset: {fileID: 0}
  m_GameObject: {fileID: 891067153}
  m_Enabled: 1
  m_EditorHideFlags: 0
  m_Script: {fileID: 11500000, guid: 695bc14bf546bdb40b3697a20a3e306e, type: 3}
  m_Name: 
  m_EditorClassIdentifier: 
  networkManager: {fileID: 16196411}
  enterIpAddressPanel: {fileID: 891067153}
  lobbyPanel: {fileID: 808298696}
  ipAddressInputField: {fileID: 174785825}
  joinButton: {fileID: 1866418864}
--- !u!1 &938229878
GameObject:
  m_ObjectHideFlags: 0
  m_CorrespondingSourceObject: {fileID: 0}
  m_PrefabInstance: {fileID: 0}
  m_PrefabAsset: {fileID: 0}
  serializedVersion: 6
  m_Component:
  - component: {fileID: 938229879}
  m_Layer: 0
  m_Name: === Others ===
  m_TagString: Untagged
  m_Icon: {fileID: 0}
  m_NavMeshLayer: 0
  m_StaticEditorFlags: 0
  m_IsActive: 1
--- !u!4 &938229879
Transform:
  m_ObjectHideFlags: 0
  m_CorrespondingSourceObject: {fileID: 0}
  m_PrefabInstance: {fileID: 0}
  m_PrefabAsset: {fileID: 0}
  m_GameObject: {fileID: 938229878}
  m_LocalRotation: {x: 0, y: 0, z: 0, w: 1}
  m_LocalPosition: {x: 1070.7694, y: 471.13644, z: -73.37618}
  m_LocalScale: {x: 1, y: 1, z: 1}
  m_Children:
  - {fileID: 963194228}
  m_Father: {fileID: 0}
  m_RootOrder: 8
  m_LocalEulerAnglesHint: {x: 0, y: 0, z: 0}
--- !u!1001 &961256789
PrefabInstance:
  m_ObjectHideFlags: 0
  serializedVersion: 2
  m_Modification:
    m_TransformParent: {fileID: 0}
    m_Modifications:
    - target: {fileID: 7426169706984401090, guid: a0f9a381670583a44909b7242d9efec4, type: 3}
      propertyPath: m_OnClick.m_PersistentCalls.m_Calls.Array.size
      value: 0
      objectReference: {fileID: 0}
    - target: {fileID: 7426169706984401091, guid: a0f9a381670583a44909b7242d9efec4, type: 3}
      propertyPath: m_Sprite
      value: 
      objectReference: {fileID: 21300000, guid: 81b2d9af1b8d28b4d856efa1d1053a32, type: 3}
    - target: {fileID: 7426169707104719104, guid: a0f9a381670583a44909b7242d9efec4, type: 3}
      propertyPath: m_Sprite
      value: 
      objectReference: {fileID: 21300000, guid: 81b2d9af1b8d28b4d856efa1d1053a32, type: 3}
    - target: {fileID: 7426169707104719135, guid: a0f9a381670583a44909b7242d9efec4, type: 3}
      propertyPath: m_OnClick.m_PersistentCalls.m_Calls.Array.size
      value: 0
      objectReference: {fileID: 0}
    - target: {fileID: 7426169707324717205, guid: a0f9a381670583a44909b7242d9efec4, type: 3}
      propertyPath: m_IsActive
      value: 0
      objectReference: {fileID: 0}
    - target: {fileID: 7426169707324717207, guid: a0f9a381670583a44909b7242d9efec4, type: 3}
      propertyPath: m_Enabled
      value: 0
      objectReference: {fileID: 0}
    - target: {fileID: 7426169707476775441, guid: a0f9a381670583a44909b7242d9efec4, type: 3}
      propertyPath: m_IsActive
      value: 1
      objectReference: {fileID: 0}
    - target: {fileID: 7426169707720275940, guid: a0f9a381670583a44909b7242d9efec4, type: 3}
      propertyPath: m_Name
      value: UI_Lobby
      objectReference: {fileID: 0}
    - target: {fileID: 7426169707720275940, guid: a0f9a381670583a44909b7242d9efec4, type: 3}
      propertyPath: m_IsActive
      value: 1
      objectReference: {fileID: 0}
    - target: {fileID: 7426169707720275941, guid: a0f9a381670583a44909b7242d9efec4, type: 3}
      propertyPath: m_LocalPosition.x
      value: 0
      objectReference: {fileID: 0}
    - target: {fileID: 7426169707720275941, guid: a0f9a381670583a44909b7242d9efec4, type: 3}
      propertyPath: m_LocalPosition.y
      value: 0
      objectReference: {fileID: 0}
    - target: {fileID: 7426169707720275941, guid: a0f9a381670583a44909b7242d9efec4, type: 3}
      propertyPath: m_LocalPosition.z
      value: 0
      objectReference: {fileID: 0}
    - target: {fileID: 7426169707720275941, guid: a0f9a381670583a44909b7242d9efec4, type: 3}
      propertyPath: m_LocalRotation.x
      value: -0
      objectReference: {fileID: 0}
    - target: {fileID: 7426169707720275941, guid: a0f9a381670583a44909b7242d9efec4, type: 3}
      propertyPath: m_LocalRotation.y
      value: -0
      objectReference: {fileID: 0}
    - target: {fileID: 7426169707720275941, guid: a0f9a381670583a44909b7242d9efec4, type: 3}
      propertyPath: m_LocalRotation.z
      value: -0
      objectReference: {fileID: 0}
    - target: {fileID: 7426169707720275941, guid: a0f9a381670583a44909b7242d9efec4, type: 3}
      propertyPath: m_LocalRotation.w
      value: 1
      objectReference: {fileID: 0}
    - target: {fileID: 7426169707720275941, guid: a0f9a381670583a44909b7242d9efec4, type: 3}
      propertyPath: m_RootOrder
      value: 6
      objectReference: {fileID: 0}
    - target: {fileID: 7426169707720275941, guid: a0f9a381670583a44909b7242d9efec4, type: 3}
      propertyPath: m_LocalEulerAnglesHint.x
      value: 0
      objectReference: {fileID: 0}
    - target: {fileID: 7426169707720275941, guid: a0f9a381670583a44909b7242d9efec4, type: 3}
      propertyPath: m_LocalEulerAnglesHint.y
      value: 0
      objectReference: {fileID: 0}
    - target: {fileID: 7426169707720275941, guid: a0f9a381670583a44909b7242d9efec4, type: 3}
      propertyPath: m_LocalEulerAnglesHint.z
      value: 0
      objectReference: {fileID: 0}
    m_RemovedComponents: []
  m_SourcePrefab: {fileID: 100100000, guid: a0f9a381670583a44909b7242d9efec4, type: 3}
--- !u!1 &963194225
GameObject:
  m_ObjectHideFlags: 0
  m_CorrespondingSourceObject: {fileID: 0}
  m_PrefabInstance: {fileID: 0}
  m_PrefabAsset: {fileID: 0}
  serializedVersion: 6
  m_Component:
  - component: {fileID: 963194228}
  - component: {fileID: 963194227}
  - component: {fileID: 963194226}
  m_Layer: 0
  m_Name: Main Camera
  m_TagString: MainCamera
  m_Icon: {fileID: 0}
  m_NavMeshLayer: 0
  m_StaticEditorFlags: 0
  m_IsActive: 1
--- !u!81 &963194226
AudioListener:
  m_ObjectHideFlags: 0
  m_CorrespondingSourceObject: {fileID: 0}
  m_PrefabInstance: {fileID: 0}
  m_PrefabAsset: {fileID: 0}
  m_GameObject: {fileID: 963194225}
  m_Enabled: 1
--- !u!20 &963194227
Camera:
  m_ObjectHideFlags: 0
  m_CorrespondingSourceObject: {fileID: 0}
  m_PrefabInstance: {fileID: 0}
  m_PrefabAsset: {fileID: 0}
  m_GameObject: {fileID: 963194225}
  m_Enabled: 1
  serializedVersion: 2
  m_ClearFlags: 3
  m_BackGroundColor: {r: 0, g: 0, b: 0, a: 0}
  m_projectionMatrixMode: 1
  m_GateFitMode: 2
  m_FOVAxisMode: 0
  m_SensorSize: {x: 36, y: 24}
  m_LensShift: {x: 0, y: 0}
  m_FocalLength: 50
  m_NormalizedViewPortRect:
    serializedVersion: 2
    x: 0
    y: 0
    width: 1
    height: 1
  near clip plane: 0.3
  far clip plane: 1000
  field of view: 60
  orthographic: 0
  orthographic size: 5
  m_Depth: -1
  m_CullingMask:
    serializedVersion: 2
    m_Bits: 4294967295
  m_RenderingPath: -1
  m_TargetTexture: {fileID: 0}
  m_TargetDisplay: 0
  m_TargetEye: 3
  m_HDR: 1
  m_AllowMSAA: 1
  m_AllowDynamicResolution: 0
  m_ForceIntoRT: 0
  m_OcclusionCulling: 1
  m_StereoConvergence: 10
  m_StereoSeparation: 0.022
--- !u!4 &963194228
Transform:
  m_ObjectHideFlags: 0
  m_CorrespondingSourceObject: {fileID: 0}
  m_PrefabInstance: {fileID: 0}
  m_PrefabAsset: {fileID: 0}
  m_GameObject: {fileID: 963194225}
  m_LocalRotation: {x: -0, y: -0, z: -0, w: 1}
  m_LocalPosition: {x: -1070.7694, y: -470.13644, z: 63.376183}
  m_LocalScale: {x: 1, y: 1, z: 1}
  m_Children: []
  m_Father: {fileID: 938229879}
  m_RootOrder: 0
  m_LocalEulerAnglesHint: {x: 0, y: 0, z: 0}
--- !u!114 &974636220 stripped
MonoBehaviour:
  m_CorrespondingSourceObject: {fileID: 7426169707524647725, guid: a0f9a381670583a44909b7242d9efec4, type: 3}
  m_PrefabInstance: {fileID: 961256789}
  m_PrefabAsset: {fileID: 0}
  m_GameObject: {fileID: 0}
  m_Enabled: 1
  m_EditorHideFlags: 0
  m_Script: {fileID: 11500000, guid: f4688fdb7df04437aeb418b961361dc5, type: 3}
  m_Name: 
  m_EditorClassIdentifier: 
--- !u!1 &1079431994
GameObject:
  m_ObjectHideFlags: 0
  m_CorrespondingSourceObject: {fileID: 0}
  m_PrefabInstance: {fileID: 0}
  m_PrefabAsset: {fileID: 0}
  serializedVersion: 6
  m_Component:
  - component: {fileID: 1079431996}
  - component: {fileID: 1079431995}
  m_Layer: 0
  m_Name: AudioManager
  m_TagString: Untagged
  m_Icon: {fileID: 0}
  m_NavMeshLayer: 0
  m_StaticEditorFlags: 0
  m_IsActive: 1
--- !u!114 &1079431995
MonoBehaviour:
  m_ObjectHideFlags: 0
  m_CorrespondingSourceObject: {fileID: 0}
  m_PrefabInstance: {fileID: 0}
  m_PrefabAsset: {fileID: 0}
  m_GameObject: {fileID: 1079431994}
  m_Enabled: 1
  m_EditorHideFlags: 0
  m_Script: {fileID: 11500000, guid: c162bb8cc3b15134ba3f640251f8446e, type: 3}
  m_Name: 
  m_EditorClassIdentifier: 
  sounds:
  - name: LoadSprint
    clip: {fileID: 8300000, guid: 4d657034ab8474d489fdf97683ad9510, type: 3}
    volume: 0.2
    pitch: 1
    randomVolume: 0
    randomPitch: 0
  - name: UnloadSprint
    clip: {fileID: 8300000, guid: 452fcf7425dc90e4cab1b753bbd1d89c, type: 3}
    volume: 0.2
    pitch: 1
    randomVolume: 0
    randomPitch: 0
  - name: Shoot
    clip: {fileID: 8300000, guid: e19f6d8451c76f1438a198e5bbbf196f, type: 3}
    volume: 0.1
    pitch: 1
    randomVolume: 0
    randomPitch: 0
  - name: Death
    clip: {fileID: 8300000, guid: 3b0459d3fd124da47b563e266b4e5785, type: 3}
    volume: 1
    pitch: 1
    randomVolume: 0
    randomPitch: 0
  - name: Spawn
    clip: {fileID: 8300000, guid: 68670885e0f8e2543bb91a00292d4ebe, type: 3}
    volume: 0.3
    pitch: 1
    randomVolume: 0
    randomPitch: 0
  - name: Reload
    clip: {fileID: 8300000, guid: cf94467a923a34d41a4b0145c646e587, type: 3}
    volume: 0.3
    pitch: 1
    randomVolume: 0
    randomPitch: 0
  - name: BulletHit
    clip: {fileID: 8300000, guid: f6800f6b843a2c74093cc7d973583ff9, type: 3}
    volume: 0.5
    pitch: 1
    randomVolume: 0
    randomPitch: 0
  - name: BulletCriticalHit
    clip: {fileID: 8300000, guid: 8349de80edc5b1f42b20bc5716cba03c, type: 3}
    volume: 0.5
    pitch: 1
    randomVolume: 0
    randomPitch: 0
--- !u!4 &1079431996
Transform:
  m_ObjectHideFlags: 0
  m_CorrespondingSourceObject: {fileID: 0}
  m_PrefabInstance: {fileID: 0}
  m_PrefabAsset: {fileID: 0}
  m_GameObject: {fileID: 1079431994}
  m_LocalRotation: {x: 0, y: 0, z: 0, w: 1}
  m_LocalPosition: {x: 0, y: 0, z: 0}
  m_LocalScale: {x: 1, y: 1, z: 1}
  m_Children: []
  m_Father: {fileID: 0}
  m_RootOrder: 1
  m_LocalEulerAnglesHint: {x: 0, y: 0, z: 0}
--- !u!114 &1197338608 stripped
MonoBehaviour:
  m_CorrespondingSourceObject: {fileID: 7426169706984401090, guid: a0f9a381670583a44909b7242d9efec4, type: 3}
  m_PrefabInstance: {fileID: 961256789}
  m_PrefabAsset: {fileID: 0}
  m_GameObject: {fileID: 0}
  m_Enabled: 1
  m_EditorHideFlags: 0
  m_Script: {fileID: 11500000, guid: 4e29b1a8efbd4b44bb3f3716e73f07ff, type: 3}
  m_Name: 
  m_EditorClassIdentifier: 
--- !u!1 &1245453463
GameObject:
  m_ObjectHideFlags: 0
  m_CorrespondingSourceObject: {fileID: 0}
  m_PrefabInstance: {fileID: 0}
  m_PrefabAsset: {fileID: 0}
  serializedVersion: 6
  m_Component:
  - component: {fileID: 1245453464}
  - component: {fileID: 1245453466}
  - component: {fileID: 1245453465}
  m_Layer: 5
  m_Name: Text_Quit
  m_TagString: Untagged
  m_Icon: {fileID: 0}
  m_NavMeshLayer: 0
  m_StaticEditorFlags: 0
  m_IsActive: 1
--- !u!224 &1245453464
RectTransform:
  m_ObjectHideFlags: 0
  m_CorrespondingSourceObject: {fileID: 0}
  m_PrefabInstance: {fileID: 0}
  m_PrefabAsset: {fileID: 0}
  m_GameObject: {fileID: 1245453463}
  m_LocalRotation: {x: 0, y: 0, z: 0, w: 1}
  m_LocalPosition: {x: 0, y: 0, z: 0}
  m_LocalScale: {x: 1, y: 1, z: 1}
  m_Children: []
  m_Father: {fileID: 1986022814}
  m_RootOrder: 0
  m_LocalEulerAnglesHint: {x: 0, y: 0, z: 0}
  m_AnchorMin: {x: 0, y: 0}
  m_AnchorMax: {x: 1, y: 1}
  m_AnchoredPosition: {x: 0, y: 0}
  m_SizeDelta: {x: 0, y: 0}
  m_Pivot: {x: 0.5, y: 0.5}
--- !u!114 &1245453465
MonoBehaviour:
  m_ObjectHideFlags: 0
  m_CorrespondingSourceObject: {fileID: 0}
  m_PrefabInstance: {fileID: 0}
  m_PrefabAsset: {fileID: 0}
  m_GameObject: {fileID: 1245453463}
  m_Enabled: 1
  m_EditorHideFlags: 0
  m_Script: {fileID: 11500000, guid: f4688fdb7df04437aeb418b961361dc5, type: 3}
  m_Name: 
  m_EditorClassIdentifier: 
  m_Material: {fileID: 0}
  m_Color: {r: 1, g: 1, b: 1, a: 1}
  m_RaycastTarget: 1
  m_RaycastPadding: {x: 0, y: 0, z: 0, w: 0}
  m_Maskable: 1
  m_OnCullStateChanged:
    m_PersistentCalls:
      m_Calls: []
  m_text: QUIT
  m_isRightToLeft: 0
  m_fontAsset: {fileID: 11400000, guid: 8f586378b4e144a9851e7b34d9b748ee, type: 2}
  m_sharedMaterial: {fileID: 2180264, guid: 8f586378b4e144a9851e7b34d9b748ee, type: 2}
  m_fontSharedMaterials: []
  m_fontMaterial: {fileID: 0}
  m_fontMaterials: []
  m_fontColor32:
    serializedVersion: 2
    rgba: 4294967295
  m_fontColor: {r: 1, g: 1, b: 1, a: 1}
  m_enableVertexGradient: 0
  m_colorMode: 3
  m_fontColorGradient:
    topLeft: {r: 1, g: 1, b: 1, a: 1}
    topRight: {r: 1, g: 1, b: 1, a: 1}
    bottomLeft: {r: 1, g: 1, b: 1, a: 1}
    bottomRight: {r: 1, g: 1, b: 1, a: 1}
  m_fontColorGradientPreset: {fileID: 0}
  m_spriteAsset: {fileID: 0}
  m_tintAllSprites: 0
  m_StyleSheet: {fileID: 0}
  m_TextStyleHashCode: -1183493901
  m_overrideHtmlColors: 0
  m_faceColor:
    serializedVersion: 2
    rgba: 4294967295
  m_fontSize: 40
  m_fontSizeBase: 40
  m_fontWeight: 400
  m_enableAutoSizing: 0
  m_fontSizeMin: 18
  m_fontSizeMax: 72
  m_fontStyle: 1
  m_HorizontalAlignment: 2
  m_VerticalAlignment: 512
  m_textAlignment: 65535
  m_characterSpacing: 0
  m_wordSpacing: 0
  m_lineSpacing: 0
  m_lineSpacingMax: 0
  m_paragraphSpacing: 0
  m_charWidthMaxAdj: 0
  m_enableWordWrapping: 1
  m_wordWrappingRatios: 0.4
  m_overflowMode: 0
  m_linkedTextComponent: {fileID: 0}
  parentLinkedComponent: {fileID: 0}
  m_enableKerning: 1
  m_enableExtraPadding: 0
  checkPaddingRequired: 0
  m_isRichText: 1
  m_parseCtrlCharacters: 1
  m_isOrthographic: 1
  m_isCullingEnabled: 0
  m_horizontalMapping: 0
  m_verticalMapping: 0
  m_uvLineOffset: 0
  m_geometrySortingOrder: 0
  m_IsTextObjectScaleStatic: 0
  m_VertexBufferAutoSizeReduction: 1
  m_useMaxVisibleDescender: 1
  m_pageToDisplay: 1
  m_margin: {x: 0, y: 0, z: 0, w: 0}
  m_isUsingLegacyAnimationComponent: 0
  m_isVolumetricText: 0
  m_hasFontAssetChanged: 0
  m_baseMaterial: {fileID: 0}
  m_maskOffset: {x: 0, y: 0, z: 0, w: 0}
--- !u!222 &1245453466
CanvasRenderer:
  m_ObjectHideFlags: 0
  m_CorrespondingSourceObject: {fileID: 0}
  m_PrefabInstance: {fileID: 0}
  m_PrefabAsset: {fileID: 0}
  m_GameObject: {fileID: 1245453463}
  m_CullTransparentMesh: 0
--- !u!114 &1300506512 stripped
MonoBehaviour:
  m_CorrespondingSourceObject: {fileID: 7426169706525415597, guid: a0f9a381670583a44909b7242d9efec4, type: 3}
  m_PrefabInstance: {fileID: 961256789}
  m_PrefabAsset: {fileID: 0}
  m_GameObject: {fileID: 0}
  m_Enabled: 1
  m_EditorHideFlags: 0
  m_Script: {fileID: 11500000, guid: f4688fdb7df04437aeb418b961361dc5, type: 3}
  m_Name: 
  m_EditorClassIdentifier: 
--- !u!114 &1305257616 stripped
MonoBehaviour:
  m_CorrespondingSourceObject: {fileID: 7426169707878230778, guid: a0f9a381670583a44909b7242d9efec4, type: 3}
  m_PrefabInstance: {fileID: 961256789}
  m_PrefabAsset: {fileID: 0}
  m_GameObject: {fileID: 0}
  m_Enabled: 1
  m_EditorHideFlags: 0
  m_Script: {fileID: 11500000, guid: f4688fdb7df04437aeb418b961361dc5, type: 3}
  m_Name: 
  m_EditorClassIdentifier: 
--- !u!114 &1350319279 stripped
MonoBehaviour:
  m_CorrespondingSourceObject: {fileID: 7426169706467644205, guid: a0f9a381670583a44909b7242d9efec4, type: 3}
  m_PrefabInstance: {fileID: 961256789}
  m_PrefabAsset: {fileID: 0}
  m_GameObject: {fileID: 0}
  m_Enabled: 1
  m_EditorHideFlags: 0
  m_Script: {fileID: 11500000, guid: f4688fdb7df04437aeb418b961361dc5, type: 3}
  m_Name: 
  m_EditorClassIdentifier: 
--- !u!114 &1355194840 stripped
MonoBehaviour:
  m_CorrespondingSourceObject: {fileID: 7426169706867439172, guid: a0f9a381670583a44909b7242d9efec4, type: 3}
  m_PrefabInstance: {fileID: 961256789}
  m_PrefabAsset: {fileID: 0}
  m_GameObject: {fileID: 0}
  m_Enabled: 1
  m_EditorHideFlags: 0
  m_Script: {fileID: 11500000, guid: f4688fdb7df04437aeb418b961361dc5, type: 3}
  m_Name: 
  m_EditorClassIdentifier: 
--- !u!114 &1415432032 stripped
MonoBehaviour:
  m_CorrespondingSourceObject: {fileID: 7426169706202386075, guid: a0f9a381670583a44909b7242d9efec4, type: 3}
  m_PrefabInstance: {fileID: 961256789}
  m_PrefabAsset: {fileID: 0}
  m_GameObject: {fileID: 0}
  m_Enabled: 1
  m_EditorHideFlags: 0
  m_Script: {fileID: 11500000, guid: f4688fdb7df04437aeb418b961361dc5, type: 3}
  m_Name: 
  m_EditorClassIdentifier: 
--- !u!114 &1443312557 stripped
MonoBehaviour:
  m_CorrespondingSourceObject: {fileID: 7426169707363400347, guid: a0f9a381670583a44909b7242d9efec4, type: 3}
  m_PrefabInstance: {fileID: 961256789}
  m_PrefabAsset: {fileID: 0}
  m_GameObject: {fileID: 0}
  m_Enabled: 1
  m_EditorHideFlags: 0
  m_Script: {fileID: 11500000, guid: f4688fdb7df04437aeb418b961361dc5, type: 3}
  m_Name: 
  m_EditorClassIdentifier: 
--- !u!1 &1466889614 stripped
GameObject:
  m_CorrespondingSourceObject: {fileID: 7426169707720275940, guid: a0f9a381670583a44909b7242d9efec4, type: 3}
  m_PrefabInstance: {fileID: 961256789}
  m_PrefabAsset: {fileID: 0}
--- !u!114 &1466889615
MonoBehaviour:
  m_ObjectHideFlags: 0
  m_CorrespondingSourceObject: {fileID: 0}
  m_PrefabInstance: {fileID: 0}
  m_PrefabAsset: {fileID: 0}
  m_GameObject: {fileID: 1466889614}
  m_Enabled: 1
  m_EditorHideFlags: 0
  m_Script: {fileID: 11500000, guid: 1ec7e6b09cfe81143979fdbcd16b2524, type: 3}
  m_Name: 
  m_EditorClassIdentifier: 
  team1PlayerNameTexts:
  - {fileID: 1355194840}
  - {fileID: 1300506512}
  - {fileID: 1682447407}
  - {fileID: 626289041}
  - {fileID: 2125323999}
  team1PlayerReadyTexts:
  - {fileID: 1702098498}
  - {fileID: 974636220}
  - {fileID: 1350319279}
  - {fileID: 2031382633}
  - {fileID: 430885099}
  team2PlayerNameTexts:
  - {fileID: 432859005}
  - {fileID: 2138237027}
  - {fileID: 1883723650}
  - {fileID: 2106282611}
  - {fileID: 1787378675}
  team2PlayerReadyTexts:
  - {fileID: 1443312557}
  - {fileID: 1753362879}
  - {fileID: 537049191}
  - {fileID: 1415432032}
  - {fileID: 1305257616}
--- !u!114 &1466889617
MonoBehaviour:
  m_ObjectHideFlags: 0
  m_CorrespondingSourceObject: {fileID: 0}
  m_PrefabInstance: {fileID: 0}
  m_PrefabAsset: {fileID: 0}
  m_GameObject: {fileID: 1466889614}
  m_Enabled: 1
  m_EditorHideFlags: 0
  m_Script: {fileID: 11500000, guid: 9090e9a8d8764014b87d78b992e6ea80, type: 3}
  m_Name: 
  m_EditorClassIdentifier: 
  startButton: {fileID: 609403996}
  changeTeam1: {fileID: 889834982}
  changeTeam2: {fileID: 1197338608}
  readyButton: {fileID: 654296350}
--- !u!1001 &1492293377
PrefabInstance:
  m_ObjectHideFlags: 0
  serializedVersion: 2
  m_Modification:
    m_TransformParent: {fileID: 0}
    m_Modifications:
    - target: {fileID: 2065356241316369425, guid: 07d9436d46a62454bb84b30302412fbd, type: 3}
      propertyPath: sceneId
      value: 1516040928
      objectReference: {fileID: 0}
    - target: {fileID: 2065356241316369425, guid: 07d9436d46a62454bb84b30302412fbd, type: 3}
      propertyPath: m_AssetId
      value: 07d9436d46a62454bb84b30302412fbd
      objectReference: {fileID: 0}
    - target: {fileID: 6069090138097003590, guid: 07d9436d46a62454bb84b30302412fbd, type: 3}
      propertyPath: m_LocalPosition.x
      value: 950.8708
      objectReference: {fileID: 0}
    - target: {fileID: 6069090138097003590, guid: 07d9436d46a62454bb84b30302412fbd, type: 3}
      propertyPath: m_LocalPosition.y
      value: 514.11926
      objectReference: {fileID: 0}
    - target: {fileID: 6069090138097003590, guid: 07d9436d46a62454bb84b30302412fbd, type: 3}
      propertyPath: m_LocalPosition.z
      value: -55.938137
      objectReference: {fileID: 0}
    - target: {fileID: 6069090138097003590, guid: 07d9436d46a62454bb84b30302412fbd, type: 3}
      propertyPath: m_LocalRotation.x
      value: 0
      objectReference: {fileID: 0}
    - target: {fileID: 6069090138097003590, guid: 07d9436d46a62454bb84b30302412fbd, type: 3}
      propertyPath: m_LocalRotation.y
      value: 0
      objectReference: {fileID: 0}
    - target: {fileID: 6069090138097003590, guid: 07d9436d46a62454bb84b30302412fbd, type: 3}
      propertyPath: m_LocalRotation.z
      value: 0
      objectReference: {fileID: 0}
    - target: {fileID: 6069090138097003590, guid: 07d9436d46a62454bb84b30302412fbd, type: 3}
      propertyPath: m_LocalRotation.w
      value: 1
      objectReference: {fileID: 0}
    - target: {fileID: 6069090138097003590, guid: 07d9436d46a62454bb84b30302412fbd, type: 3}
      propertyPath: m_RootOrder
      value: 7
      objectReference: {fileID: 0}
    - target: {fileID: 6069090138097003590, guid: 07d9436d46a62454bb84b30302412fbd, type: 3}
      propertyPath: m_LocalEulerAnglesHint.x
      value: 0
      objectReference: {fileID: 0}
    - target: {fileID: 6069090138097003590, guid: 07d9436d46a62454bb84b30302412fbd, type: 3}
      propertyPath: m_LocalEulerAnglesHint.y
      value: 0
      objectReference: {fileID: 0}
    - target: {fileID: 6069090138097003590, guid: 07d9436d46a62454bb84b30302412fbd, type: 3}
      propertyPath: m_LocalEulerAnglesHint.z
      value: 0
      objectReference: {fileID: 0}
    - target: {fileID: 7811193132495225287, guid: 07d9436d46a62454bb84b30302412fbd, type: 3}
      propertyPath: m_Name
      value: UISettings
      objectReference: {fileID: 0}
    - target: {fileID: 9128311893248115498, guid: 07d9436d46a62454bb84b30302412fbd, type: 3}
      propertyPath: m_OnValueChanged.m_PersistentCalls.m_Calls.Array.size
      value: 1
      objectReference: {fileID: 0}
    - target: {fileID: 9128311893248115498, guid: 07d9436d46a62454bb84b30302412fbd, type: 3}
      propertyPath: m_OnValueChanged.m_PersistentCalls.m_Calls.Array.data[0].m_Mode
      value: 1
      objectReference: {fileID: 0}
    - target: {fileID: 9128311893248115498, guid: 07d9436d46a62454bb84b30302412fbd, type: 3}
      propertyPath: m_OnValueChanged.m_PersistentCalls.m_Calls.Array.data[0].m_CallState
      value: 2
      objectReference: {fileID: 0}
    - target: {fileID: 9128311893248115498, guid: 07d9436d46a62454bb84b30302412fbd, type: 3}
      propertyPath: m_OnValueChanged.m_PersistentCalls.m_Calls.Array.data[0].m_Target
      value: 
      objectReference: {fileID: 659747817}
    - target: {fileID: 9128311893248115498, guid: 07d9436d46a62454bb84b30302412fbd, type: 3}
      propertyPath: m_OnValueChanged.m_PersistentCalls.m_Calls.Array.data[0].m_TargetAssemblyTypeName
      value: UI.UISettings, Assembly-CSharp
      objectReference: {fileID: 0}
    - target: {fileID: 9128311893248115498, guid: 07d9436d46a62454bb84b30302412fbd, type: 3}
      propertyPath: m_OnValueChanged.m_PersistentCalls.m_Calls.Array.data[0].m_MethodName
      value: saveSettings
      objectReference: {fileID: 0}
    - target: {fileID: 9128311893248115498, guid: 07d9436d46a62454bb84b30302412fbd, type: 3}
      propertyPath: m_OnValueChanged.m_PersistentCalls.m_Calls.Array.data[0].m_Arguments.m_ObjectArgumentAssemblyTypeName
      value: UnityEngine.Object, UnityEngine
      objectReference: {fileID: 0}
    - target: {fileID: 9128311893351109586, guid: 07d9436d46a62454bb84b30302412fbd, type: 3}
      propertyPath: m_AnchorMax.y
      value: 1
      objectReference: {fileID: 0}
    - target: {fileID: 9128311893425215019, guid: 07d9436d46a62454bb84b30302412fbd, type: 3}
      propertyPath: m_AnchorMax.y
      value: 1
      objectReference: {fileID: 0}
    - target: {fileID: 9128311893569230834, guid: 07d9436d46a62454bb84b30302412fbd, type: 3}
      propertyPath: m_AnchorMax.y
      value: 1
      objectReference: {fileID: 0}
    - target: {fileID: 9128311893613270408, guid: 07d9436d46a62454bb84b30302412fbd, type: 3}
      propertyPath: m_AnchorMax.y
      value: 1
      objectReference: {fileID: 0}
    - target: {fileID: 9128311893889567206, guid: 07d9436d46a62454bb84b30302412fbd, type: 3}
      propertyPath: m_OnValueChanged.m_PersistentCalls.m_Calls.Array.size
      value: 1
      objectReference: {fileID: 0}
    - target: {fileID: 9128311893889567206, guid: 07d9436d46a62454bb84b30302412fbd, type: 3}
      propertyPath: m_OnValueChanged.m_PersistentCalls.m_Calls.Array.data[0].m_Mode
      value: 1
      objectReference: {fileID: 0}
    - target: {fileID: 9128311893889567206, guid: 07d9436d46a62454bb84b30302412fbd, type: 3}
      propertyPath: m_OnValueChanged.m_PersistentCalls.m_Calls.Array.data[0].m_CallState
      value: 2
      objectReference: {fileID: 0}
    - target: {fileID: 9128311893889567206, guid: 07d9436d46a62454bb84b30302412fbd, type: 3}
      propertyPath: m_OnValueChanged.m_PersistentCalls.m_Calls.Array.data[0].m_Target
      value: 
      objectReference: {fileID: 659747817}
    - target: {fileID: 9128311893889567206, guid: 07d9436d46a62454bb84b30302412fbd, type: 3}
      propertyPath: m_OnValueChanged.m_PersistentCalls.m_Calls.Array.data[0].m_TargetAssemblyTypeName
      value: UI.UISettings, Assembly-CSharp
      objectReference: {fileID: 0}
    - target: {fileID: 9128311893889567206, guid: 07d9436d46a62454bb84b30302412fbd, type: 3}
      propertyPath: m_OnValueChanged.m_PersistentCalls.m_Calls.Array.data[0].m_MethodName
      value: saveSettings
      objectReference: {fileID: 0}
    - target: {fileID: 9128311893889567206, guid: 07d9436d46a62454bb84b30302412fbd, type: 3}
      propertyPath: m_OnValueChanged.m_PersistentCalls.m_Calls.Array.data[0].m_Arguments.m_ObjectArgumentAssemblyTypeName
      value: UnityEngine.Object, UnityEngine
      objectReference: {fileID: 0}
    - target: {fileID: 9128311894082352303, guid: 07d9436d46a62454bb84b30302412fbd, type: 3}
      propertyPath: m_OnValueChanged.m_PersistentCalls.m_Calls.Array.data[0].m_Target
      value: 
      objectReference: {fileID: 659747817}
    - target: {fileID: 9128311894082352303, guid: 07d9436d46a62454bb84b30302412fbd, type: 3}
      propertyPath: m_OnValueChanged.m_PersistentCalls.m_Calls.Array.data[0].m_TargetAssemblyTypeName
      value: UI.UISettings, Assembly-CSharp
      objectReference: {fileID: 0}
    - target: {fileID: 9128311894082352303, guid: 07d9436d46a62454bb84b30302412fbd, type: 3}
      propertyPath: m_OnValueChanged.m_PersistentCalls.m_Calls.Array.data[0].m_MethodName
      value: saveSettings
      objectReference: {fileID: 0}
    - target: {fileID: 9128311894082352303, guid: 07d9436d46a62454bb84b30302412fbd, type: 3}
      propertyPath: m_OnValueChanged.m_PersistentCalls.m_Calls.Array.data[0].m_Arguments.m_ObjectArgumentAssemblyTypeName
      value: UnityEngine.Object, UnityEngine
      objectReference: {fileID: 0}
    - target: {fileID: 9128311894271567474, guid: 07d9436d46a62454bb84b30302412fbd, type: 3}
      propertyPath: m_IsActive
      value: 0
      objectReference: {fileID: 0}
    - target: {fileID: 9128311894440507662, guid: 07d9436d46a62454bb84b30302412fbd, type: 3}
      propertyPath: m_AnchorMax.y
      value: 1
      objectReference: {fileID: 0}
    - target: {fileID: 9128311894905543643, guid: 07d9436d46a62454bb84b30302412fbd, type: 3}
      propertyPath: m_AnchorMax.y
      value: 1
      objectReference: {fileID: 0}
    m_RemovedComponents: []
  m_SourcePrefab: {fileID: 100100000, guid: 07d9436d46a62454bb84b30302412fbd, type: 3}
--- !u!1 &1548908417
GameObject:
  m_ObjectHideFlags: 0
  m_CorrespondingSourceObject: {fileID: 0}
  m_PrefabInstance: {fileID: 0}
  m_PrefabAsset: {fileID: 0}
  serializedVersion: 6
  m_Component:
  - component: {fileID: 1548908418}
  m_Layer: 0
  m_Name: === UI ===
  m_TagString: Untagged
  m_Icon: {fileID: 0}
  m_NavMeshLayer: 0
  m_StaticEditorFlags: 0
  m_IsActive: 1
--- !u!4 &1548908418
Transform:
  m_ObjectHideFlags: 0
  m_CorrespondingSourceObject: {fileID: 0}
  m_PrefabInstance: {fileID: 0}
  m_PrefabAsset: {fileID: 0}
  m_GameObject: {fileID: 1548908417}
  m_LocalRotation: {x: 0, y: 0, z: 0, w: 1}
  m_LocalPosition: {x: 1070.7694, y: 471.13644, z: -73.37618}
  m_LocalScale: {x: 1, y: 1, z: 1}
  m_Children: []
  m_Father: {fileID: 0}
  m_RootOrder: 4
  m_LocalEulerAnglesHint: {x: 0, y: 0, z: 0}
--- !u!1001 &1594032602
PrefabInstance:
  m_ObjectHideFlags: 0
  serializedVersion: 2
  m_Modification:
    m_TransformParent: {fileID: 0}
    m_Modifications:
    - target: {fileID: 3621774347686136657, guid: 6b7a1c182ec5c0e4d9b3a6a0667793f7, type: 3}
      propertyPath: m_OnClick.m_PersistentCalls.m_Calls.Array.data[0].m_Target
      value: 
      objectReference: {fileID: 891067154}
    - target: {fileID: 3621774347686136657, guid: 6b7a1c182ec5c0e4d9b3a6a0667793f7, type: 3}
      propertyPath: m_OnClick.m_PersistentCalls.m_Calls.Array.data[0].m_MethodName
      value: JoinRoom
      objectReference: {fileID: 0}
    - target: {fileID: 3621774347686136657, guid: 6b7a1c182ec5c0e4d9b3a6a0667793f7, type: 3}
      propertyPath: m_OnClick.m_PersistentCalls.m_Calls.Array.data[0].m_TargetAssemblyTypeName
      value: Assets.Scripts.JoinRoomAsClient, Assembly-CSharp
      objectReference: {fileID: 0}
    - target: {fileID: 3621774347807129462, guid: 6b7a1c182ec5c0e4d9b3a6a0667793f7, type: 3}
      propertyPath: m_OnClick.m_PersistentCalls.m_Calls.Array.data[0].m_Target
      value: 
      objectReference: {fileID: 1594032610}
    - target: {fileID: 3621774347807129462, guid: 6b7a1c182ec5c0e4d9b3a6a0667793f7, type: 3}
      propertyPath: m_OnClick.m_PersistentCalls.m_Calls.Array.data[0].m_MethodName
      value: SavePlayerName
      objectReference: {fileID: 0}
    - target: {fileID: 3621774347807129462, guid: 6b7a1c182ec5c0e4d9b3a6a0667793f7, type: 3}
      propertyPath: m_OnClick.m_PersistentCalls.m_Calls.Array.data[0].m_TargetAssemblyTypeName
      value: Assets.LobbyImproved.PlayerNameInput, Assembly-CSharp
      objectReference: {fileID: 0}
    - target: {fileID: 3621774348194004574, guid: 6b7a1c182ec5c0e4d9b3a6a0667793f7, type: 3}
      propertyPath: m_OnValueChanged.m_PersistentCalls.m_Calls.Array.data[0].m_Target
      value: 
      objectReference: {fileID: 1594032610}
    - target: {fileID: 3621774348194004574, guid: 6b7a1c182ec5c0e4d9b3a6a0667793f7, type: 3}
      propertyPath: m_OnValueChanged.m_PersistentCalls.m_Calls.Array.data[0].m_MethodName
      value: SetPlayerName
      objectReference: {fileID: 0}
    - target: {fileID: 3621774348194004574, guid: 6b7a1c182ec5c0e4d9b3a6a0667793f7, type: 3}
      propertyPath: m_OnValueChanged.m_PersistentCalls.m_Calls.Array.data[0].m_TargetAssemblyTypeName
      value: Assets.LobbyImproved.PlayerNameInput, Assembly-CSharp
      objectReference: {fileID: 0}
    - target: {fileID: 3621774348194004574, guid: 6b7a1c182ec5c0e4d9b3a6a0667793f7, type: 3}
      propertyPath: m_OnValueChanged.m_PersistentCalls.m_Calls.Array.data[0].m_Mode
      value: 0
      objectReference: {fileID: 0}
    - target: {fileID: 3621774348263817162, guid: 6b7a1c182ec5c0e4d9b3a6a0667793f7, type: 3}
      propertyPath: m_Texture
      value: 
      objectReference: {fileID: 2800000, guid: c27160895e80116429a1ff617436f175, type: 3}
    - target: {fileID: 3621774348889668256, guid: 6b7a1c182ec5c0e4d9b3a6a0667793f7, type: 3}
      propertyPath: m_OnClick.m_PersistentCalls.m_Calls.Array.size
      value: 2
      objectReference: {fileID: 0}
    - target: {fileID: 3621774348889668256, guid: 6b7a1c182ec5c0e4d9b3a6a0667793f7, type: 3}
      propertyPath: m_OnClick.m_PersistentCalls.m_Calls.Array.data[0].m_Target
      value: 
      objectReference: {fileID: 891067153}
    - target: {fileID: 3621774348889668256, guid: 6b7a1c182ec5c0e4d9b3a6a0667793f7, type: 3}
      propertyPath: m_OnClick.m_PersistentCalls.m_Calls.Array.data[0].m_Arguments.m_BoolArgument
      value: 1
      objectReference: {fileID: 0}
    - target: {fileID: 3621774348889668256, guid: 6b7a1c182ec5c0e4d9b3a6a0667793f7, type: 3}
      propertyPath: m_OnClick.m_PersistentCalls.m_Calls.Array.data[0].m_TargetAssemblyTypeName
      value: UnityEngine.GameObject, UnityEngine
      objectReference: {fileID: 0}
    - target: {fileID: 3621774348889668256, guid: 6b7a1c182ec5c0e4d9b3a6a0667793f7, type: 3}
      propertyPath: m_OnClick.m_PersistentCalls.m_Calls.Array.data[0].m_MethodName
      value: SetActive
      objectReference: {fileID: 0}
    - target: {fileID: 3621774348889668256, guid: 6b7a1c182ec5c0e4d9b3a6a0667793f7, type: 3}
      propertyPath: m_OnClick.m_PersistentCalls.m_Calls.Array.data[0].m_Mode
      value: 6
      objectReference: {fileID: 0}
    - target: {fileID: 3621774348889668256, guid: 6b7a1c182ec5c0e4d9b3a6a0667793f7, type: 3}
      propertyPath: m_OnClick.m_PersistentCalls.m_Calls.Array.data[0].m_Arguments.m_ObjectArgumentAssemblyTypeName
      value: UnityEngine.Object, UnityEngine
      objectReference: {fileID: 0}
    - target: {fileID: 3621774348889668256, guid: 6b7a1c182ec5c0e4d9b3a6a0667793f7, type: 3}
      propertyPath: m_OnClick.m_PersistentCalls.m_Calls.Array.data[1].m_Target
      value: 
      objectReference: {fileID: 1594032604}
    - target: {fileID: 3621774348889668256, guid: 6b7a1c182ec5c0e4d9b3a6a0667793f7, type: 3}
      propertyPath: m_OnClick.m_PersistentCalls.m_Calls.Array.data[1].m_MethodName
      value: SetActive
      objectReference: {fileID: 0}
    - target: {fileID: 3621774348889668256, guid: 6b7a1c182ec5c0e4d9b3a6a0667793f7, type: 3}
      propertyPath: m_OnClick.m_PersistentCalls.m_Calls.Array.data[1].m_Mode
      value: 6
      objectReference: {fileID: 0}
    - target: {fileID: 3621774348889668256, guid: 6b7a1c182ec5c0e4d9b3a6a0667793f7, type: 3}
      propertyPath: m_OnClick.m_PersistentCalls.m_Calls.Array.data[1].m_Arguments.m_ObjectArgumentAssemblyTypeName
      value: UnityEngine.Object, UnityEngine
      objectReference: {fileID: 0}
    - target: {fileID: 3621774348889668256, guid: 6b7a1c182ec5c0e4d9b3a6a0667793f7, type: 3}
      propertyPath: m_OnClick.m_PersistentCalls.m_Calls.Array.data[1].m_Arguments.m_BoolArgument
      value: 0
      objectReference: {fileID: 0}
    - target: {fileID: 3621774349150915748, guid: 6b7a1c182ec5c0e4d9b3a6a0667793f7, type: 3}
      propertyPath: m_OnClick.m_PersistentCalls.m_Calls.Array.size
      value: 1
      objectReference: {fileID: 0}
    - target: {fileID: 3621774349150915748, guid: 6b7a1c182ec5c0e4d9b3a6a0667793f7, type: 3}
      propertyPath: m_OnClick.m_PersistentCalls.m_Calls.Array.data[1].m_Arguments.m_BoolArgument
      value: 1
      objectReference: {fileID: 0}
    - target: {fileID: 3621774349150915748, guid: 6b7a1c182ec5c0e4d9b3a6a0667793f7, type: 3}
      propertyPath: m_OnClick.m_PersistentCalls.m_Calls.Array.data[0].m_Target
      value: 
      objectReference: {fileID: 1594032609}
    - target: {fileID: 3621774349150915748, guid: 6b7a1c182ec5c0e4d9b3a6a0667793f7, type: 3}
      propertyPath: m_OnClick.m_PersistentCalls.m_Calls.Array.data[0].m_TargetAssemblyTypeName
      value: Assets.LobbyImproved.HostRoom, Assembly-CSharp
      objectReference: {fileID: 0}
    - target: {fileID: 3621774349150915748, guid: 6b7a1c182ec5c0e4d9b3a6a0667793f7, type: 3}
      propertyPath: m_OnClick.m_PersistentCalls.m_Calls.Array.data[0].m_MethodName
      value: StartHost
      objectReference: {fileID: 0}
    - target: {fileID: 3621774349150915748, guid: 6b7a1c182ec5c0e4d9b3a6a0667793f7, type: 3}
      propertyPath: m_OnClick.m_PersistentCalls.m_Calls.Array.data[0].m_Mode
      value: 1
      objectReference: {fileID: 0}
    - target: {fileID: 3621774349150915748, guid: 6b7a1c182ec5c0e4d9b3a6a0667793f7, type: 3}
      propertyPath: m_OnClick.m_PersistentCalls.m_Calls.Array.data[1].m_Target
      value: 
      objectReference: {fileID: 0}
    - target: {fileID: 3621774349249787764, guid: 6b7a1c182ec5c0e4d9b3a6a0667793f7, type: 3}
      propertyPath: m_OnClick.m_PersistentCalls.m_Calls.Array.size
      value: 4
      objectReference: {fileID: 0}
    - target: {fileID: 3621774349249787764, guid: 6b7a1c182ec5c0e4d9b3a6a0667793f7, type: 3}
      propertyPath: m_OnClick.m_PersistentCalls.m_Calls.Array.data[2].m_TargetAssemblyTypeName
      value: Mirror.NetworkManager, Mirror
      objectReference: {fileID: 0}
    - target: {fileID: 3621774349249787764, guid: 6b7a1c182ec5c0e4d9b3a6a0667793f7, type: 3}
      propertyPath: m_OnClick.m_PersistentCalls.m_Calls.Array.data[2].m_Mode
      value: 1
      objectReference: {fileID: 0}
    - target: {fileID: 3621774349249787764, guid: 6b7a1c182ec5c0e4d9b3a6a0667793f7, type: 3}
      propertyPath: m_OnClick.m_PersistentCalls.m_Calls.Array.data[2].m_Arguments.m_BoolArgument
      value: 1
      objectReference: {fileID: 0}
    - target: {fileID: 3621774349249787764, guid: 6b7a1c182ec5c0e4d9b3a6a0667793f7, type: 3}
      propertyPath: m_OnClick.m_PersistentCalls.m_Calls.Array.data[2].m_CallState
      value: 2
      objectReference: {fileID: 0}
    - target: {fileID: 3621774349249787764, guid: 6b7a1c182ec5c0e4d9b3a6a0667793f7, type: 3}
      propertyPath: m_OnClick.m_PersistentCalls.m_Calls.Array.data[2].m_Target
      value: 
      objectReference: {fileID: 16196411}
    - target: {fileID: 3621774349249787764, guid: 6b7a1c182ec5c0e4d9b3a6a0667793f7, type: 3}
      propertyPath: m_OnClick.m_PersistentCalls.m_Calls.Array.data[2].m_MethodName
      value: StopClient
      objectReference: {fileID: 0}
    - target: {fileID: 3621774349249787764, guid: 6b7a1c182ec5c0e4d9b3a6a0667793f7, type: 3}
      propertyPath: m_OnClick.m_PersistentCalls.m_Calls.Array.data[2].m_Arguments.m_ObjectArgumentAssemblyTypeName
      value: UnityEngine.Object, UnityEngine
      objectReference: {fileID: 0}
    - target: {fileID: 3621774349249787764, guid: 6b7a1c182ec5c0e4d9b3a6a0667793f7, type: 3}
      propertyPath: m_OnClick.m_PersistentCalls.m_Calls.Array.data[3].m_TargetAssemblyTypeName
      value: UnityEngine.UI.Selectable, UnityEngine.UI
      objectReference: {fileID: 0}
    - target: {fileID: 3621774349249787764, guid: 6b7a1c182ec5c0e4d9b3a6a0667793f7, type: 3}
      propertyPath: m_OnClick.m_PersistentCalls.m_Calls.Array.data[3].m_Mode
      value: 6
      objectReference: {fileID: 0}
    - target: {fileID: 3621774349249787764, guid: 6b7a1c182ec5c0e4d9b3a6a0667793f7, type: 3}
      propertyPath: m_OnClick.m_PersistentCalls.m_Calls.Array.data[3].m_Arguments.m_BoolArgument
      value: 1
      objectReference: {fileID: 0}
    - target: {fileID: 3621774349249787764, guid: 6b7a1c182ec5c0e4d9b3a6a0667793f7, type: 3}
      propertyPath: m_OnClick.m_PersistentCalls.m_Calls.Array.data[3].m_CallState
      value: 2
      objectReference: {fileID: 0}
    - target: {fileID: 3621774349249787764, guid: 6b7a1c182ec5c0e4d9b3a6a0667793f7, type: 3}
      propertyPath: m_OnClick.m_PersistentCalls.m_Calls.Array.data[3].m_Target
      value: 
      objectReference: {fileID: 1866418864}
    - target: {fileID: 3621774349249787764, guid: 6b7a1c182ec5c0e4d9b3a6a0667793f7, type: 3}
      propertyPath: m_OnClick.m_PersistentCalls.m_Calls.Array.data[3].m_MethodName
      value: set_interactable
      objectReference: {fileID: 0}
    - target: {fileID: 3621774349249787764, guid: 6b7a1c182ec5c0e4d9b3a6a0667793f7, type: 3}
      propertyPath: m_OnClick.m_PersistentCalls.m_Calls.Array.data[3].m_Arguments.m_ObjectArgumentAssemblyTypeName
      value: UnityEngine.Object, UnityEngine
      objectReference: {fileID: 0}
    - target: {fileID: 3621774349529010252, guid: 6b7a1c182ec5c0e4d9b3a6a0667793f7, type: 3}
      propertyPath: m_Name
      value: UI_Main_Menu
      objectReference: {fileID: 0}
    - target: {fileID: 3621774349529010258, guid: 6b7a1c182ec5c0e4d9b3a6a0667793f7, type: 3}
      propertyPath: m_LocalPosition.x
      value: 0
      objectReference: {fileID: 0}
    - target: {fileID: 3621774349529010258, guid: 6b7a1c182ec5c0e4d9b3a6a0667793f7, type: 3}
      propertyPath: m_LocalPosition.y
      value: 0
      objectReference: {fileID: 0}
    - target: {fileID: 3621774349529010258, guid: 6b7a1c182ec5c0e4d9b3a6a0667793f7, type: 3}
      propertyPath: m_LocalPosition.z
      value: 0
      objectReference: {fileID: 0}
    - target: {fileID: 3621774349529010258, guid: 6b7a1c182ec5c0e4d9b3a6a0667793f7, type: 3}
      propertyPath: m_LocalRotation.x
      value: 0
      objectReference: {fileID: 0}
    - target: {fileID: 3621774349529010258, guid: 6b7a1c182ec5c0e4d9b3a6a0667793f7, type: 3}
      propertyPath: m_LocalRotation.y
      value: 0
      objectReference: {fileID: 0}
    - target: {fileID: 3621774349529010258, guid: 6b7a1c182ec5c0e4d9b3a6a0667793f7, type: 3}
      propertyPath: m_LocalRotation.z
      value: 0
      objectReference: {fileID: 0}
    - target: {fileID: 3621774349529010258, guid: 6b7a1c182ec5c0e4d9b3a6a0667793f7, type: 3}
      propertyPath: m_LocalRotation.w
      value: 1
      objectReference: {fileID: 0}
    - target: {fileID: 3621774349529010258, guid: 6b7a1c182ec5c0e4d9b3a6a0667793f7, type: 3}
      propertyPath: m_RootOrder
      value: 5
      objectReference: {fileID: 0}
    - target: {fileID: 3621774349529010258, guid: 6b7a1c182ec5c0e4d9b3a6a0667793f7, type: 3}
      propertyPath: m_LocalEulerAnglesHint.x
      value: 0
      objectReference: {fileID: 0}
    - target: {fileID: 3621774349529010258, guid: 6b7a1c182ec5c0e4d9b3a6a0667793f7, type: 3}
      propertyPath: m_LocalEulerAnglesHint.y
      value: 0
      objectReference: {fileID: 0}
    - target: {fileID: 3621774349529010258, guid: 6b7a1c182ec5c0e4d9b3a6a0667793f7, type: 3}
      propertyPath: m_LocalEulerAnglesHint.z
      value: 0
      objectReference: {fileID: 0}
    m_RemovedComponents:
    - {fileID: 3621774347888650192, guid: 6b7a1c182ec5c0e4d9b3a6a0667793f7, type: 3}
    - {fileID: 3621774349155750922, guid: 6b7a1c182ec5c0e4d9b3a6a0667793f7, type: 3}
    - {fileID: 3621774349529010253, guid: 6b7a1c182ec5c0e4d9b3a6a0667793f7, type: 3}
  m_SourcePrefab: {fileID: 100100000, guid: 6b7a1c182ec5c0e4d9b3a6a0667793f7, type: 3}
--- !u!1 &1594032604 stripped
GameObject:
  m_CorrespondingSourceObject: {fileID: 3621774347649061259, guid: 6b7a1c182ec5c0e4d9b3a6a0667793f7, type: 3}
  m_PrefabInstance: {fileID: 1594032602}
  m_PrefabAsset: {fileID: 0}
--- !u!1 &1594032605 stripped
GameObject:
  m_CorrespondingSourceObject: {fileID: 3621774349150915750, guid: 6b7a1c182ec5c0e4d9b3a6a0667793f7, type: 3}
  m_PrefabInstance: {fileID: 1594032602}
  m_PrefabAsset: {fileID: 0}
--- !u!114 &1594032606 stripped
MonoBehaviour:
  m_CorrespondingSourceObject: {fileID: 3621774347807129462, guid: 6b7a1c182ec5c0e4d9b3a6a0667793f7, type: 3}
  m_PrefabInstance: {fileID: 1594032602}
  m_PrefabAsset: {fileID: 0}
  m_GameObject: {fileID: 0}
  m_Enabled: 1
  m_EditorHideFlags: 0
  m_Script: {fileID: 11500000, guid: 4e29b1a8efbd4b44bb3f3716e73f07ff, type: 3}
  m_Name: 
  m_EditorClassIdentifier: 
--- !u!114 &1594032607 stripped
MonoBehaviour:
  m_CorrespondingSourceObject: {fileID: 3621774348194004574, guid: 6b7a1c182ec5c0e4d9b3a6a0667793f7, type: 3}
  m_PrefabInstance: {fileID: 1594032602}
  m_PrefabAsset: {fileID: 0}
  m_GameObject: {fileID: 0}
  m_Enabled: 1
  m_EditorHideFlags: 0
  m_Script: {fileID: 11500000, guid: 2da0c512f12947e489f739169773d7ca, type: 3}
  m_Name: 
  m_EditorClassIdentifier: 
--- !u!1 &1594032608 stripped
GameObject:
  m_CorrespondingSourceObject: {fileID: 3621774347888650194, guid: 6b7a1c182ec5c0e4d9b3a6a0667793f7, type: 3}
  m_PrefabInstance: {fileID: 1594032602}
  m_PrefabAsset: {fileID: 0}
--- !u!114 &1594032609
MonoBehaviour:
  m_ObjectHideFlags: 0
  m_CorrespondingSourceObject: {fileID: 0}
  m_PrefabInstance: {fileID: 0}
  m_PrefabAsset: {fileID: 0}
  m_GameObject: {fileID: 1594032605}
  m_Enabled: 1
  m_EditorHideFlags: 0
  m_Script: {fileID: 11500000, guid: 16f8d5424d50ef240b9afda7864edd51, type: 3}
  m_Name: 
  m_EditorClassIdentifier: 
  networkManager: {fileID: 16196411}
  landingPagePanel: {fileID: 1594032604}
  lobbyPanel: {fileID: 808298696}
--- !u!114 &1594032610
MonoBehaviour:
  m_ObjectHideFlags: 0
  m_CorrespondingSourceObject: {fileID: 0}
  m_PrefabInstance: {fileID: 0}
  m_PrefabAsset: {fileID: 0}
  m_GameObject: {fileID: 1594032608}
  m_Enabled: 1
  m_EditorHideFlags: 0
  m_Script: {fileID: 11500000, guid: 7f6c2fd4c09b88e46a64fd27aa6dc967, type: 3}
  m_Name: 
  m_EditorClassIdentifier: 
  nameInputField: {fileID: 1594032607}
  continueButton: {fileID: 1594032606}
--- !u!1 &1650862648 stripped
GameObject:
  m_CorrespondingSourceObject: {fileID: 3621774349529010252, guid: 6b7a1c182ec5c0e4d9b3a6a0667793f7, type: 3}
  m_PrefabInstance: {fileID: 1594032602}
  m_PrefabAsset: {fileID: 0}
--- !u!114 &1650862649
MonoBehaviour:
  m_ObjectHideFlags: 0
  m_CorrespondingSourceObject: {fileID: 0}
  m_PrefabInstance: {fileID: 0}
  m_PrefabAsset: {fileID: 0}
  m_GameObject: {fileID: 1650862648}
  m_Enabled: 1
  m_EditorHideFlags: 0
  m_Script: {fileID: 11500000, guid: 9fa1317c215915846a25a945b8993983, type: 3}
  m_Name: 
  m_EditorClassIdentifier: 
  panelNameInput: {fileID: 1594032608}
  panelLandingPage: {fileID: 1594032604}
  panelEnterIpAddress: {fileID: 891067153}
  panelLobby: {fileID: 808298696}
--- !u!114 &1682447407 stripped
MonoBehaviour:
  m_CorrespondingSourceObject: {fileID: 7426169705949085214, guid: a0f9a381670583a44909b7242d9efec4, type: 3}
  m_PrefabInstance: {fileID: 961256789}
  m_PrefabAsset: {fileID: 0}
  m_GameObject: {fileID: 0}
  m_Enabled: 1
  m_EditorHideFlags: 0
  m_Script: {fileID: 11500000, guid: f4688fdb7df04437aeb418b961361dc5, type: 3}
  m_Name: 
  m_EditorClassIdentifier: 
--- !u!114 &1702098498 stripped
MonoBehaviour:
  m_CorrespondingSourceObject: {fileID: 7426169706287174540, guid: a0f9a381670583a44909b7242d9efec4, type: 3}
  m_PrefabInstance: {fileID: 961256789}
  m_PrefabAsset: {fileID: 0}
  m_GameObject: {fileID: 0}
  m_Enabled: 1
  m_EditorHideFlags: 0
  m_Script: {fileID: 11500000, guid: f4688fdb7df04437aeb418b961361dc5, type: 3}
  m_Name: 
  m_EditorClassIdentifier: 
--- !u!114 &1753362879 stripped
MonoBehaviour:
  m_CorrespondingSourceObject: {fileID: 7426169707806107694, guid: a0f9a381670583a44909b7242d9efec4, type: 3}
  m_PrefabInstance: {fileID: 961256789}
  m_PrefabAsset: {fileID: 0}
  m_GameObject: {fileID: 0}
  m_Enabled: 1
  m_EditorHideFlags: 0
  m_Script: {fileID: 11500000, guid: f4688fdb7df04437aeb418b961361dc5, type: 3}
  m_Name: 
  m_EditorClassIdentifier: 
--- !u!114 &1787378675 stripped
MonoBehaviour:
  m_CorrespondingSourceObject: {fileID: 7426169707198144580, guid: a0f9a381670583a44909b7242d9efec4, type: 3}
  m_PrefabInstance: {fileID: 961256789}
  m_PrefabAsset: {fileID: 0}
  m_GameObject: {fileID: 0}
  m_Enabled: 1
  m_EditorHideFlags: 0
  m_Script: {fileID: 11500000, guid: f4688fdb7df04437aeb418b961361dc5, type: 3}
  m_Name: 
  m_EditorClassIdentifier: 
--- !u!114 &1866418864 stripped
MonoBehaviour:
  m_CorrespondingSourceObject: {fileID: 3621774347686136657, guid: 6b7a1c182ec5c0e4d9b3a6a0667793f7, type: 3}
  m_PrefabInstance: {fileID: 1594032602}
  m_PrefabAsset: {fileID: 0}
  m_GameObject: {fileID: 0}
  m_Enabled: 1
  m_EditorHideFlags: 0
  m_Script: {fileID: 11500000, guid: 4e29b1a8efbd4b44bb3f3716e73f07ff, type: 3}
  m_Name: 
  m_EditorClassIdentifier: 
--- !u!114 &1883723650 stripped
MonoBehaviour:
  m_CorrespondingSourceObject: {fileID: 7426169706498279889, guid: a0f9a381670583a44909b7242d9efec4, type: 3}
  m_PrefabInstance: {fileID: 961256789}
  m_PrefabAsset: {fileID: 0}
  m_GameObject: {fileID: 0}
  m_Enabled: 1
  m_EditorHideFlags: 0
  m_Script: {fileID: 11500000, guid: f4688fdb7df04437aeb418b961361dc5, type: 3}
  m_Name: 
  m_EditorClassIdentifier: 
--- !u!1 &1986022813
GameObject:
  m_ObjectHideFlags: 0
  m_CorrespondingSourceObject: {fileID: 0}
  m_PrefabInstance: {fileID: 0}
  m_PrefabAsset: {fileID: 0}
  serializedVersion: 6
  m_Component:
  - component: {fileID: 1986022814}
  - component: {fileID: 1986022817}
  - component: {fileID: 1986022816}
  - component: {fileID: 1986022815}
  m_Layer: 5
  m_Name: Button_Quit
  m_TagString: ReadyButton
  m_Icon: {fileID: 0}
  m_NavMeshLayer: 0
  m_StaticEditorFlags: 0
  m_IsActive: 1
--- !u!224 &1986022814
RectTransform:
  m_ObjectHideFlags: 0
  m_CorrespondingSourceObject: {fileID: 0}
  m_PrefabInstance: {fileID: 0}
  m_PrefabAsset: {fileID: 0}
  m_GameObject: {fileID: 1986022813}
  m_LocalRotation: {x: 0, y: 0, z: 0, w: 1}
  m_LocalPosition: {x: 0, y: 0, z: 0}
  m_LocalScale: {x: 1, y: 1, z: 1}
  m_Children:
  - {fileID: 1245453464}
  m_Father: {fileID: 808298697}
  m_RootOrder: 6
  m_LocalEulerAnglesHint: {x: 0, y: 0, z: 0}
  m_AnchorMin: {x: 0.5, y: 0}
  m_AnchorMax: {x: 0.5, y: 0}
  m_AnchoredPosition: {x: -742.78, y: 82.832}
  m_SizeDelta: {x: 207.77954, y: 69.78934}
  m_Pivot: {x: 0.5, y: 0.5}
--- !u!114 &1986022815
MonoBehaviour:
  m_ObjectHideFlags: 0
  m_CorrespondingSourceObject: {fileID: 0}
  m_PrefabInstance: {fileID: 0}
  m_PrefabAsset: {fileID: 0}
  m_GameObject: {fileID: 1986022813}
  m_Enabled: 1
  m_EditorHideFlags: 0
  m_Script: {fileID: 11500000, guid: 4e29b1a8efbd4b44bb3f3716e73f07ff, type: 3}
  m_Name: 
  m_EditorClassIdentifier: 
  m_Navigation:
    m_Mode: 3
    m_SelectOnUp: {fileID: 0}
    m_SelectOnDown: {fileID: 0}
    m_SelectOnLeft: {fileID: 0}
    m_SelectOnRight: {fileID: 0}
  m_Transition: 1
  m_Colors:
    m_NormalColor: {r: 1, g: 1, b: 1, a: 1}
    m_HighlightedColor: {r: 0.9607843, g: 0.9607843, b: 0.9607843, a: 1}
    m_PressedColor: {r: 0.78431374, g: 0.78431374, b: 0.78431374, a: 1}
    m_SelectedColor: {r: 0.9607843, g: 0.9607843, b: 0.9607843, a: 1}
    m_DisabledColor: {r: 0.78431374, g: 0.78431374, b: 0.78431374, a: 0.5019608}
    m_ColorMultiplier: 1
    m_FadeDuration: 0.1
  m_SpriteState:
    m_HighlightedSprite: {fileID: 0}
    m_PressedSprite: {fileID: 0}
    m_SelectedSprite: {fileID: 0}
    m_DisabledSprite: {fileID: 0}
  m_AnimationTriggers:
    m_NormalTrigger: Normal
    m_HighlightedTrigger: Highlighted
    m_PressedTrigger: Pressed
    m_SelectedTrigger: Selected
    m_DisabledTrigger: Disabled
  m_Interactable: 1
  m_TargetGraphic: {fileID: 1986022816}
  m_OnClick:
    m_PersistentCalls:
      m_Calls:
      - m_Target: {fileID: 808298696}
        m_TargetAssemblyTypeName: UnityEngine.GameObject, UnityEngine
        m_MethodName: SetActive
        m_Mode: 6
        m_Arguments:
          m_ObjectArgument: {fileID: 0}
          m_ObjectArgumentAssemblyTypeName: UnityEngine.Object, UnityEngine
          m_IntArgument: 0
          m_FloatArgument: 0
          m_StringArgument: 
          m_BoolArgument: 0
        m_CallState: 2
      - m_Target: {fileID: 1594032604}
        m_TargetAssemblyTypeName: UnityEngine.GameObject, UnityEngine
        m_MethodName: SetActive
        m_Mode: 6
        m_Arguments:
          m_ObjectArgument: {fileID: 0}
          m_ObjectArgumentAssemblyTypeName: UnityEngine.Object, UnityEngine
          m_IntArgument: 0
          m_FloatArgument: 0
          m_StringArgument: 
          m_BoolArgument: 1
        m_CallState: 2
      - m_Target: {fileID: 16196411}
        m_TargetAssemblyTypeName: Mirror.NetworkManager, Mirror
        m_MethodName: OnApplicationQuit
        m_Mode: 1
        m_Arguments:
          m_ObjectArgument: {fileID: 0}
          m_ObjectArgumentAssemblyTypeName: UnityEngine.Object, UnityEngine
          m_IntArgument: 0
          m_FloatArgument: 0
          m_StringArgument: 
          m_BoolArgument: 1
        m_CallState: 2
      - m_Target: {fileID: 16196411}
        m_TargetAssemblyTypeName: Network.NetworkRoomManagerExt, Assembly-CSharp
        m_MethodName: CloseRoom
        m_Mode: 1
        m_Arguments:
          m_ObjectArgument: {fileID: 0}
          m_ObjectArgumentAssemblyTypeName: UnityEngine.Object, UnityEngine
          m_IntArgument: 0
          m_FloatArgument: 0
          m_StringArgument: 
          m_BoolArgument: 1
        m_CallState: 2
      - m_Target: {fileID: 1866418864}
        m_TargetAssemblyTypeName: UnityEngine.UI.Selectable, UnityEngine.UI
        m_MethodName: set_interactable
        m_Mode: 6
        m_Arguments:
          m_ObjectArgument: {fileID: 0}
          m_ObjectArgumentAssemblyTypeName: UnityEngine.Object, UnityEngine
          m_IntArgument: 0
          m_FloatArgument: 0
          m_StringArgument: 
          m_BoolArgument: 1
        m_CallState: 2
--- !u!114 &1986022816
MonoBehaviour:
  m_ObjectHideFlags: 0
  m_CorrespondingSourceObject: {fileID: 0}
  m_PrefabInstance: {fileID: 0}
  m_PrefabAsset: {fileID: 0}
  m_GameObject: {fileID: 1986022813}
  m_Enabled: 1
  m_EditorHideFlags: 0
  m_Script: {fileID: 11500000, guid: fe87c0e1cc204ed48ad3b37840f39efc, type: 3}
  m_Name: 
  m_EditorClassIdentifier: 
  m_Material: {fileID: 0}
  m_Color: {r: 0.6313726, g: 0, b: 0.075364225, a: 0.74509805}
  m_RaycastTarget: 1
  m_RaycastPadding: {x: 0, y: 0, z: 0, w: 0}
  m_Maskable: 1
  m_OnCullStateChanged:
    m_PersistentCalls:
      m_Calls: []
  m_Sprite: {fileID: 10905, guid: 0000000000000000f000000000000000, type: 0}
  m_Type: 1
  m_PreserveAspect: 0
  m_FillCenter: 1
  m_FillMethod: 4
  m_FillAmount: 1
  m_FillClockwise: 1
  m_FillOrigin: 0
  m_UseSpriteMesh: 0
  m_PixelsPerUnitMultiplier: 1
--- !u!222 &1986022817
CanvasRenderer:
  m_ObjectHideFlags: 0
  m_CorrespondingSourceObject: {fileID: 0}
  m_PrefabInstance: {fileID: 0}
  m_PrefabAsset: {fileID: 0}
  m_GameObject: {fileID: 1986022813}
  m_CullTransparentMesh: 0
--- !u!114 &2031382633 stripped
MonoBehaviour:
  m_CorrespondingSourceObject: {fileID: 7426169707532492146, guid: a0f9a381670583a44909b7242d9efec4, type: 3}
  m_PrefabInstance: {fileID: 961256789}
  m_PrefabAsset: {fileID: 0}
  m_GameObject: {fileID: 0}
  m_Enabled: 1
  m_EditorHideFlags: 0
  m_Script: {fileID: 11500000, guid: f4688fdb7df04437aeb418b961361dc5, type: 3}
  m_Name: 
  m_EditorClassIdentifier: 
--- !u!114 &2106282611 stripped
MonoBehaviour:
  m_CorrespondingSourceObject: {fileID: 7426169707079368639, guid: a0f9a381670583a44909b7242d9efec4, type: 3}
  m_PrefabInstance: {fileID: 961256789}
  m_PrefabAsset: {fileID: 0}
  m_GameObject: {fileID: 0}
  m_Enabled: 1
  m_EditorHideFlags: 0
  m_Script: {fileID: 11500000, guid: f4688fdb7df04437aeb418b961361dc5, type: 3}
  m_Name: 
  m_EditorClassIdentifier: 
--- !u!114 &2125323999 stripped
MonoBehaviour:
  m_CorrespondingSourceObject: {fileID: 7426169706398314708, guid: a0f9a381670583a44909b7242d9efec4, type: 3}
  m_PrefabInstance: {fileID: 961256789}
  m_PrefabAsset: {fileID: 0}
  m_GameObject: {fileID: 0}
  m_Enabled: 1
  m_EditorHideFlags: 0
  m_Script: {fileID: 11500000, guid: f4688fdb7df04437aeb418b961361dc5, type: 3}
  m_Name: 
  m_EditorClassIdentifier: 
--- !u!114 &2138237027 stripped
MonoBehaviour:
  m_CorrespondingSourceObject: {fileID: 7426169706124738264, guid: a0f9a381670583a44909b7242d9efec4, type: 3}
  m_PrefabInstance: {fileID: 961256789}
  m_PrefabAsset: {fileID: 0}
  m_GameObject: {fileID: 0}
  m_Enabled: 1
  m_EditorHideFlags: 0
  m_Script: {fileID: 11500000, guid: f4688fdb7df04437aeb418b961361dc5, type: 3}
  m_Name: 
  m_EditorClassIdentifier: 
